<?xml version="1.0" encoding="UTF-8" standalone="no"?>
<!-- Created with Inkscape (http://www.inkscape.org/) -->

<svg
   width="297mm"
   height="210mm"
   viewBox="0 0 297 210"
   version="1.1"
   id="svg5"
   sodipodi:docname="ConservationPrincipleI.svg"
   inkscape:version="1.1 (c4e8f9ed74, 2021-05-24)"
   xmlns:inkscape="http://www.inkscape.org/namespaces/inkscape"
   xmlns:sodipodi="http://sodipodi.sourceforge.net/DTD/sodipodi-0.dtd"
   xmlns="http://www.w3.org/2000/svg"
   xmlns:svg="http://www.w3.org/2000/svg">
  <sodipodi:namedview
     id="namedview7"
     pagecolor="#ffffff"
     bordercolor="#666666"
     borderopacity="1.0"
     inkscape:pageshadow="2"
     inkscape:pageopacity="0.0"
     inkscape:pagecheckerboard="0"
     inkscape:document-units="mm"
     showgrid="false"
     inkscape:zoom="0.89452818"
     inkscape:cx="586.40152"
     inkscape:cy="407.1479"
     inkscape:window-width="1920"
     inkscape:window-height="1002"
     inkscape:window-x="0"
     inkscape:window-y="38"
     inkscape:window-maximized="1"
     inkscape:current-layer="layer1"
     inkscape:snap-global="true"
     inkscape:object-paths="false"
     inkscape:snap-smooth-nodes="false"
     inkscape:snap-intersection-paths="false"
     inkscape:snap-midpoints="false"
     inkscape:snap-object-midpoints="false"
     inkscape:object-nodes="false"
     inkscape:snap-nodes="true" />
  <defs
     id="defs2">
    <marker
       style="overflow:visible;"
       id="marker15092"
       refX="0.0"
       refY="0.0"
       orient="auto"
       inkscape:stockid="Arrow2Lend"
       inkscape:isstock="true">
      <path
         transform="scale(1.1) rotate(180) translate(1,0)"
         d="M 8.7185878,4.0337352 L -2.2072895,0.016013256 L 8.7185884,-4.0017078 C 6.9730900,-1.6296469 6.9831476,1.6157441 8.7185878,4.0337352 z "
         style="fill-rule:evenodd;fill:context-stroke;stroke-width:0.62500000;stroke-linejoin:round;"
         id="path14852" />
    </marker>
    <linearGradient
       id="linearGradient20234"
       inkscape:swatch="solid">
      <stop
         style="stop-color:#b32d0d;stop-opacity:1;"
         offset="0"
         id="stop20232" />
    </linearGradient>
    <linearGradient
       id="linearGradient7750"
       inkscape:swatch="solid">
      <stop
         style="stop-color:#317f2d;stop-opacity:0.24313727;"
         offset="0"
         id="stop7748" />
    </linearGradient>
    <linearGradient
       id="linearGradient7428"
       inkscape:swatch="solid">
      <stop
         style="stop-color:#000000;stop-opacity:1;"
         offset="0"
         id="stop7426" />
    </linearGradient>
    <marker
       style="overflow:visible"
       id="Arrow2Lstart"
       refX="0"
       refY="0"
       orient="auto"
       inkscape:stockid="Arrow2Lstart"
       inkscape:isstock="true">
      <path
         transform="matrix(1.1,0,0,1.1,1.1,0)"
         d="M 8.7185878,4.0337352 -2.2072895,0.01601326 8.7185884,-4.0017078 c -1.7454984,2.3720609 -1.7354408,5.6174519 -6e-7,8.035443 z"
         style="fill:context-stroke;fill-rule:evenodd;stroke-width:0.625;stroke-linejoin:round"
         id="path1125" />
    </marker>
    <marker
       style="overflow:visible"
       id="marker1423"
       refX="0"
       refY="0"
       orient="auto"
       inkscape:stockid="Arrow2Lend"
       inkscape:isstock="true">
      <path
         transform="matrix(-1.1,0,0,-1.1,-1.1,0)"
         d="M 8.7185878,4.0337352 -2.2072895,0.01601326 8.7185884,-4.0017078 c -1.7454984,2.3720609 -1.7354408,5.6174519 -6e-7,8.035443 z"
         style="fill:context-stroke;fill-rule:evenodd;stroke-width:0.625;stroke-linejoin:round"
         id="path1421" />
    </marker>
    <marker
       style="overflow:visible"
       id="Arrow2Lend"
       refX="0"
       refY="0"
       orient="auto"
       inkscape:stockid="Arrow2Lend"
       inkscape:isstock="true">
      <path
         transform="matrix(-1.1,0,0,-1.1,-1.1,0)"
         d="M 8.7185878,4.0337352 -2.2072895,0.01601326 8.7185884,-4.0017078 c -1.7454984,2.3720609 -1.7354408,5.6174519 -6e-7,8.035443 z"
         style="fill:context-stroke;fill-rule:evenodd;stroke-width:0.625;stroke-linejoin:round"
         id="path1128" />
    </marker>
    <marker
       style="overflow:visible"
       id="Arrow1Lstart"
       refX="0"
       refY="0"
       orient="auto"
       inkscape:stockid="Arrow1Lstart"
       inkscape:isstock="true">
      <path
         transform="matrix(0.8,0,0,0.8,10,0)"
         style="fill:context-stroke;fill-rule:evenodd;stroke:context-stroke;stroke-width:1pt"
         d="M 0,0 5,-5 -12.5,0 5,5 Z"
         id="path1107" />
    </marker>
    <marker
       style="overflow:visible"
       id="Arrow2Lstart-3"
       refX="0"
       refY="0"
       orient="auto"
       inkscape:stockid="Arrow2Lstart"
       inkscape:isstock="true">
      <path
         transform="matrix(1.1,0,0,1.1,1.1,0)"
         d="M 8.7185878,4.0337352 -2.2072895,0.01601326 8.7185884,-4.0017078 c -1.7454984,2.3720609 -1.7354408,5.6174519 -6e-7,8.035443 z"
         style="fill:context-stroke;fill-rule:evenodd;stroke-width:0.625;stroke-linejoin:round"
         id="path1125-6" />
    </marker>
    <marker
       style="overflow:visible"
       id="marker1423-7"
       refX="0"
       refY="0"
       orient="auto"
       inkscape:stockid="Arrow2Lend"
       inkscape:isstock="true">
      <path
         transform="matrix(-1.1,0,0,-1.1,-1.1,0)"
         d="M 8.7185878,4.0337352 -2.2072895,0.01601326 8.7185884,-4.0017078 c -1.7454984,2.3720609 -1.7354408,5.6174519 -6e-7,8.035443 z"
         style="fill:context-stroke;fill-rule:evenodd;stroke-width:0.625;stroke-linejoin:round"
         id="path1421-5" />
    </marker>
  </defs>
  <g
     inkscape:label="Layer 1"
     inkscape:groupmode="layer"
     id="layer1">
    <g
       id="g14778">
      <path
         style="fill:none;stroke:#000000;stroke-width:0.264583px;stroke-linecap:butt;stroke-linejoin:miter;stroke-opacity:1;marker-start:url(#Arrow2Lstart);marker-end:url(#marker1423)"
         d="M 138.84937,152.83205 50.401637,152.34984 50.265386,90.182814"
         id="path892"
         sodipodi:nodetypes="ccc" />
      <path
         style="fill:#3d2cde;fill-opacity:0.439243;stroke:#000000;stroke-width:0.264583px;stroke-linecap:butt;stroke-linejoin:miter;stroke-opacity:1"
         d="m 50.401637,152.34984 0.0077,-6.00369 c 6.367333,-1.08649 7.503943,-5.41864 7.907222,-6.02342 1.358007,-2.36795 2.797525,-4.88687 4.370711,-7.11602 1.200128,-1.70053 2.417492,-3.1254 3.973369,-4.50563 19.298505,-17.11986 19.151187,15.03795 28.191081,15.80545 9.08744,0.77154 16.40037,-9.32193 25.96599,-5.29232 6.3598,2.67913 8.72945,13.62886 14.15033,13.62886"
         id="path1776"
         sodipodi:nodetypes="cccssssc" />
      <path
         style="fill:none;stroke:none;stroke-width:0.264583px;stroke-linecap:butt;stroke-linejoin:miter;stroke-opacity:1"
         d="m 50.647962,133.88769 -0.246325,18.46215 81.122923,0.43573 3.44349,-13.17175 -84.320088,-5.72613"
         id="path28610" />
    </g>
    <g
       id="g14794">
      <path
         style="fill:#79e386;stroke:none;stroke-width:0.264583px;stroke-linecap:butt;stroke-linejoin:miter;stroke-opacity:1;fill-opacity:0.43924302"
         d="m 196.20546,140.34363 c 2.84463,-6.63308 14.2058,-18.50538 21.11625,-12.61784 2.13978,1.82304 3.58808,4.43685 7.4547,12.26795 -3.38001,-3.80505 -8.34704,-4.77534 -14.25205,-4.83881 -9.67106,-0.10394 -12.21993,1.9665 -14.9498,6.07847"
         id="path10210"
         sodipodi:nodetypes="cscsc" />
      <path
         style="fill:#b32d0d;fill-opacity:1;stroke:none;stroke-width:0.264583px;stroke-linecap:butt;stroke-linejoin:miter;stroke-opacity:1"
         d="m 234.74749,146.71152 c 5.17468,-2.32156 3.93859,-9.93061 7.0084,-14.6796 3.41906,-5.28927 6.08802,-4.595 6.98647,-3.02673 1.62164,2.83061 1.57364,4.75544 2.90794,8.28588 1.10537,2.92469 2.93424,3.3207 2.97296,3.49497 5.3e-4,0.002 -2.33191,-0.43479 -2.33191,-0.43479 0,0 -2.73135,0.24676 -5.28631,1.41304 -6.38651,2.91528 -8.76285,4.10422 -12.25755,4.94723"
         id="path14142"
         sodipodi:nodetypes="csssccsc" />
      <path
         style="fill:none;stroke:#000000;stroke-width:0.264583px;stroke-linecap:butt;stroke-linejoin:miter;stroke-opacity:1;marker-start:url(#Arrow2Lstart-3);marker-end:url(#marker1423-7)"
         d="M 277.48201,153.34849 186.5872,152.90968 186.45095,90.742654"
         id="path892-3"
         sodipodi:nodetypes="ccc" />
      <path
         style="fill:none;stroke:#000000;stroke-width:0.264583;stroke-linecap:butt;stroke-linejoin:miter;stroke-miterlimit:4;stroke-dasharray:1.05833, 2.11666;stroke-dashoffset:0;stroke-opacity:1"
         d="m 194.71202,142.73372 c 1.35802,-2.36795 2.79753,-4.88687 4.37072,-7.11602 1.20012,-1.70053 2.41749,-3.1254 3.97336,-4.50563 19.29851,-17.11985 19.13645,15.23768 28.19109,15.80545 8.94243,0.56074 17.68311,-9.98446 25.96599,-5.29232 6.00455,3.4015 9.06206,11.69318 14.48294,11.69318"
         id="path1776-5"
         sodipodi:nodetypes="cscssc" />
      <path
         style="fill:#3d2cde;fill-opacity:0.439243;stroke:#000000;stroke-width:0.264583px;stroke-linecap:butt;stroke-linejoin:miter;stroke-opacity:1"
         d="m 186.5872,152.90968 -0.005,-3.3876 c 3.71194,-0.5217 6.57093,-4.20122 7.77434,-6.29961 4.3372,-7.6927 8.02252,-7.98281 17.6394,-7.98023 11.61612,0.40993 12.95134,5.2823 15.00517,8.64185 1.08259,1.77085 2.42062,3.10129 5.51347,3.15638 9.11868,0.16243 4.52167,-14.48983 13.0961,-18.807 5.63994,-2.83967 3.53058,11.82308 9.52259,12.51334 5.75907,0.66343 2.93454,-25.55901 10.62328,-18.16056 4.53821,4.36687 3.21318,30.73215 5.93932,30.73215"
         id="path1776-5-6"
         sodipodi:nodetypes="ccccsssssc" />
      <path
         id="path1776-5-2"
         style="mix-blend-mode:normal;fill:none;fill-opacity:1;fill-rule:nonzero;stroke:none;stroke-width:0.264583;stroke-linecap:butt;stroke-linejoin:miter;stroke-miterlimit:4;stroke-dasharray:1.05833, 2.11666;stroke-dashoffset:0;stroke-opacity:1"
         d="m 212.64909,126.10296 c -2.55532,0.0872 -5.6732,1.53153 -9.59321,5.009 -1.55587,1.38023 -2.77328,2.80514 -3.9734,4.50567 -1.57319,2.22914 -3.01226,4.74789 -4.37028,7.11584 4.3372,-7.6927 7.66734,-7.49411 17.28422,-7.49153 9.10667,0.32137 11.89201,3.3852 13.66118,6.31279 -3.37187,-6.24833 -6.18649,-15.68449 -13.00851,-15.45177 z m 13.86117,16.93385 c 1.22161,2.16722 2.38202,3.95999 5.94899,4.02353 0.88333,0.0157 1.63693,-0.10904 2.28824,-0.34882 -1.14243,0.21733 -2.30596,0.3071 -3.50056,0.20567 -1.89509,-0.16089 -3.38529,-1.70364 -4.73667,-3.88038 z m 44.79211,10.26397 c 0.12986,0.0106 0.26072,0.0176 0.39375,0.0176 z" />
      <path
         style="fill:none;stroke:#007000;stroke-width:0.264583px;stroke-linecap:butt;stroke-linejoin:miter;stroke-opacity:1"
         d="m 201.22875,133.1884 3.40465,2.17899"
         id="path20671" />
      <path
         style="fill:none;stroke:#007000;stroke-width:0.264583px;stroke-linecap:butt;stroke-linejoin:miter;stroke-opacity:1"
         d="m 203.56508,131.03188 5.95563,3.7829 0.69891,0.35493"
         id="path20673" />
      <path
         style="fill:none;stroke:#007000;stroke-width:0.264583px;stroke-linecap:butt;stroke-linejoin:miter;stroke-opacity:1"
         d="m 206.50046,128.81695 10.43859,6.79755"
         id="path20675" />
      <path
         style="fill:none;stroke:#007000;stroke-width:0.264583px;stroke-linecap:butt;stroke-linejoin:miter;stroke-opacity:1"
         d="m 209.43086,127.14564 0.16973,-0.018 13.31906,9.03943"
         id="path20677"
         sodipodi:nodetypes="ccc" />
      <path
         style="fill:none;stroke:#007000;stroke-width:0.264583px;stroke-linecap:butt;stroke-linejoin:miter;stroke-opacity:1"
         d="m 212.64909,126.10296 7.54984,4.89845"
         id="path20679"
         sodipodi:nodetypes="cc" />
      <path
         style="fill:none;stroke:#000000;stroke-width:0.264583px;stroke-linecap:butt;stroke-linejoin:miter;stroke-opacity:1;marker-end:url(#marker1423-7)"
         d="m 215.90509,98.790362 c -6.24086,5.710278 -11.64962,18.107808 -7.28511,26.080358"
         id="path13302"
         sodipodi:nodetypes="cc" />
      <path
         style="fill:none;stroke:#000000;stroke-width:0.264583px;stroke-linecap:butt;stroke-linejoin:miter;stroke-opacity:1;marker-end:url(#marker1423-7)"
         d="m 216.1283,104.18476 c -10.51989,13.94099 13.72101,24.82346 25.44259,25.20376"
         id="path13304"
         sodipodi:nodetypes="cc" />
      <path
         style="fill:none;stroke:#000000;stroke-width:0.265;stroke-linecap:butt;stroke-linejoin:miter;stroke-miterlimit:4;stroke-dasharray:none;stroke-opacity:1;marker-end:url(#marker1423-7)"
         d="m 245.45418,106.83834 c 10.28914,1.34626 18.4918,10.99387 18.34589,29.29978"
         id="path13306"
         sodipodi:nodetypes="cc" />
    </g>
    <g
       id="g14591"
       transform="matrix(0.92388971,0,0,0.70285066,10.579699,30.798412)">
      <rect
         style="opacity:1;fill:#000000;fill-opacity:1;stroke:none;stroke-width:0.264999;stroke-linecap:round;stroke-linejoin:bevel;stroke-miterlimit:4;stroke-dasharray:none"
         id="rect13753"
         width="20.774933"
         height="3.5419526"
         x="146.98447"
         y="126.08694" />
      <path
         sodipodi:type="star"
         style="opacity:1;fill:#000000;fill-opacity:1;stroke:none;stroke-width:1.00157;stroke-linecap:round;stroke-linejoin:bevel;stroke-miterlimit:4;stroke-dasharray:none"
         id="path14243"
         inkscape:flatsided="true"
         sodipodi:sides="3"
         sodipodi:cx="532.00146"
         sodipodi:cy="347.18262"
         sodipodi:r1="18.851997"
         sodipodi:r2="9.4259987"
         sodipodi:arg1="-2.1478783"
         sodipodi:arg2="-1.1006808"
         inkscape:rounded="0"
         inkscape:randomized="0"
         d="m 521.71618,331.38355 29.11033,14.79128 -27.3648,17.81464 z"
         transform="matrix(0.20068476,0.02540777,-0.01197043,0.39301043,66.545912,-22.064329)"
         inkscape:transform-center-x="-0.93749163"
         inkscape:transform-center-y="-0.041123049" />
    </g>
    <path
       style="fill:none;stroke:#000000;stroke-width:0.264583px;stroke-linecap:butt;stroke-linejoin:miter;stroke-opacity:1;marker-end:url(#marker15092)"
       d="m 93.28358,107.48857 c -10.613419,3.2737 -18.266388,18.12344 -20.429024,28.91225"
       id="path14829"
       sodipodi:nodetypes="cc" />
  </g>
</svg>
