<?xml version="1.0" encoding="UTF-8" standalone="no"?>
<!-- Created with Inkscape (http://www.inkscape.org/) -->

<svg
   width="210mm"
   height="297mm"
   viewBox="0 0 210 297"
   version="1.1"
   id="svg5"
   inkscape:version="1.1 (c4e8f9ed74, 2021-05-24)"
   sodipodi:docname="ContributionsDiagramm.svg"
   xmlns:inkscape="http://www.inkscape.org/namespaces/inkscape"
   xmlns:sodipodi="http://sodipodi.sourceforge.net/DTD/sodipodi-0.dtd"
   xmlns="http://www.w3.org/2000/svg"
   xmlns:svg="http://www.w3.org/2000/svg">
  <sodipodi:namedview
     id="namedview7"
     pagecolor="#ffffff"
     bordercolor="#666666"
     borderopacity="1.0"
     inkscape:pageshadow="2"
     inkscape:pageopacity="0.0"
     inkscape:pagecheckerboard="0"
     inkscape:document-units="mm"
     showgrid="false"
     inkscape:zoom="0.97467849"
     inkscape:cx="430.92445"
     inkscape:cy="651.82439"
     inkscape:window-width="1920"
     inkscape:window-height="1002"
     inkscape:window-x="0"
     inkscape:window-y="38"
     inkscape:window-maximized="1"
     inkscape:current-layer="layer1" />
  <defs
     id="defs2">
    <linearGradient
       id="linearGradient14915"
       inkscape:swatch="solid">
      <stop
         style="stop-color:#7179c7;stop-opacity:1;"
         offset="0"
         id="stop14913" />
    </linearGradient>
    <marker
       style="overflow:visible"
       id="marker4552"
       refX="0.0"
       refY="0.0"
       orient="auto"
       inkscape:stockid="StopM"
       inkscape:isstock="true">
      <path
         transform="scale(0.4)"
         style="fill:none;fill-opacity:0.75000000;fill-rule:evenodd;stroke:context-stroke;stroke-width:1.0pt"
         d="M 0.0,5.65 L 0.0,-5.65"
         id="path4550" />
    </marker>
    <marker
       style="overflow:visible"
       id="StopM"
       refX="0.0"
       refY="0.0"
       orient="auto"
       inkscape:stockid="StopM"
       inkscape:isstock="true">
      <path
         transform="scale(0.4)"
         style="fill:none;fill-opacity:0.75000000;fill-rule:evenodd;stroke:context-stroke;stroke-width:1.0pt"
         d="M 0.0,5.65 L 0.0,-5.65"
         id="path4434" />
    </marker>
    <marker
       inkscape:stockid="DistanceStart"
       orient="auto"
       refY="0.0"
       refX="0.0"
       id="DistanceStart"
       style="overflow:visible"
       inkscape:isstock="true">
      <g
         id="g2300">
        <path
           id="path2306"
           d="M 0,0 L 2,0"
           style="fill:none;stroke:context-fill;stroke-width:1.15;stroke-linecap:square" />
        <path
           id="path2302"
           d="M 0,0 L 13,4 L 9,0 13,-4 L 0,0 z "
           style="fill:context-stroke;fill-rule:evenodd;stroke:none" />
        <path
           id="path2304"
           d="M 0,-4 L 0,40"
           style="fill:none;stroke:context-stroke;stroke-width:1;stroke-linecap:square" />
      </g>
    </marker>
    <marker
       style="overflow:visible"
       id="StopM-3"
       refX="0"
       refY="0"
       orient="auto"
       inkscape:stockid="StopM"
       inkscape:isstock="true">
      <path
         transform="scale(0.4)"
         style="fill:none;fill-opacity:0.75;fill-rule:evenodd;stroke:context-stroke;stroke-width:1pt"
         d="M 0,5.65 V -5.65"
         id="path4434-6" />
    </marker>
    <marker
       style="overflow:visible"
       id="marker4552-7"
       refX="0"
       refY="0"
       orient="auto"
       inkscape:stockid="StopM"
       inkscape:isstock="true">
      <path
         transform="scale(0.4)"
         style="fill:none;fill-opacity:0.75;fill-rule:evenodd;stroke:context-stroke;stroke-width:1pt"
         d="M 0,5.65 V -5.65"
         id="path4550-5" />
    </marker>
    <marker
       style="overflow:visible"
       id="StopM-3-5"
       refX="0"
       refY="0"
       orient="auto"
       inkscape:stockid="StopM"
       inkscape:isstock="true">
      <path
         transform="scale(0.4)"
         style="fill:none;fill-opacity:0.75;fill-rule:evenodd;stroke:context-stroke;stroke-width:1pt"
         d="M 0,5.65 V -5.65"
         id="path4434-6-6" />
    </marker>
    <marker
       style="overflow:visible"
       id="marker4552-7-2"
       refX="0"
       refY="0"
       orient="auto"
       inkscape:stockid="StopM"
       inkscape:isstock="true">
      <path
         transform="scale(0.4)"
         style="fill:none;fill-opacity:0.75;fill-rule:evenodd;stroke:context-stroke;stroke-width:1pt"
         d="M 0,5.65 V -5.65"
         id="path4550-5-9" />
    </marker>
    <marker
       style="overflow:visible"
       id="StopM-3-5-2"
       refX="0"
       refY="0"
       orient="auto"
       inkscape:stockid="StopM"
       inkscape:isstock="true">
      <path
         transform="scale(0.4)"
         style="fill:none;fill-opacity:0.75;fill-rule:evenodd;stroke:context-stroke;stroke-width:1pt"
         d="M 0,5.65 V -5.65"
         id="path4434-6-6-7" />
    </marker>
    <marker
       style="overflow:visible"
       id="marker4552-7-2-0"
       refX="0"
       refY="0"
       orient="auto"
       inkscape:stockid="StopM"
       inkscape:isstock="true">
      <path
         transform="scale(0.4)"
         style="fill:none;fill-opacity:0.75;fill-rule:evenodd;stroke:context-stroke;stroke-width:1pt"
         d="M 0,5.65 V -5.65"
         id="path4550-5-9-9" />
    </marker>
  </defs>
  <g
     inkscape:label="Layer 1"
     inkscape:groupmode="layer"
     id="layer1">
    <circle
       style="opacity:0.914242;fill:#7179c7;fill-opacity:1;stroke:#010000;stroke-width:1.41111;stroke-linecap:round;stroke-linejoin:bevel;stroke-miterlimit:4;stroke-dasharray:none;stroke-dashoffset:0;stroke-opacity:1;paint-order:normal"
       id="path866"
       cx="-93.807159"
       cy="122.61511"
       r="42"
       transform="scale(-1,1)" />
    <path
       style="fill:none;stroke:#43ae00;stroke-width:2.15194;stroke-linecap:butt;stroke-linejoin:round;stroke-miterlimit:4;stroke-dasharray:none;stroke-opacity:1;marker-start:url(#StopM);marker-end:url(#marker4552)"
       d="M 131.20918,103.13774 C 124.1811,91.316954 117.41353,86.218642 106.86128,82.638502"
       id="path3956"
       sodipodi:nodetypes="cc" />
    <path
       style="fill:none;stroke:#d33900;stroke-width:2.15194;stroke-linecap:butt;stroke-linejoin:round;stroke-miterlimit:4;stroke-dasharray:none;stroke-opacity:1;marker-start:url(#StopM-3);marker-end:url(#marker4552-7)"
       d="M 57.939316,100.73575 C 64.521724,90.90579 69.879525,86.823865 79.602793,82.772814"
       id="path3956-3"
       sodipodi:nodetypes="cc" />
    <path
       style="fill:none;stroke:#34a000;stroke-width:2.15194;stroke-linecap:butt;stroke-linejoin:round;stroke-miterlimit:4;stroke-dasharray:none;stroke-opacity:1;marker-start:url(#StopM-3-5);marker-end:url(#marker4552-7-2)"
       d="M 94.684589,164.74964 C 83.88788,164.74764 75.98947,161.45481 67.78892,155.70605"
       id="path3956-3-1"
       sodipodi:nodetypes="cc" />
    <path
       style="fill:none;stroke:#34a000;stroke-width:2.15194;stroke-linecap:butt;stroke-linejoin:round;stroke-miterlimit:4;stroke-dasharray:none;stroke-opacity:1;marker-start:url(#StopM-3-5-2);marker-end:url(#marker4552-7-2-0)"
       d="m 135.29409,129.39561 c -1.8262,10.64114 -6.54201,17.74413 -13.59368,24.85545"
       id="path3956-3-1-3"
       sodipodi:nodetypes="cc" />
    <ellipse
       style="opacity:0.914242;fill:#921c1a;fill-opacity:1;stroke:none;stroke-width:3.55123;stroke-linecap:butt;stroke-linejoin:round;stroke-miterlimit:4;stroke-dasharray:none;stroke-dashoffset:0;stroke-opacity:1;paint-order:normal"
       id="path14889"
       cx="42.767002"
       cy="188.0412"
       rx="7.302762"
       ry="5.4958611"
       transform="matrix(-0.79318768,0.60897726,0.75482921,0.65592139,0,0)" />
    <ellipse
       style="opacity:0.914242;fill:#921c1a;fill-opacity:1;stroke:none;stroke-width:3.55123;stroke-linecap:butt;stroke-linejoin:round;stroke-miterlimit:4;stroke-dasharray:none;stroke-dashoffset:0;stroke-opacity:1;paint-order:normal"
       id="path14889-6"
       cx="-111.41218"
       cy="95.367455"
       rx="7.302762"
       ry="5.4958611"
       transform="matrix(-0.88420085,-0.46710691,-0.28153439,0.95955114,0,0)" />
  </g>
</svg>
