<?xml version="1.0" encoding="UTF-8" standalone="no"?>
<!-- Created with Inkscape (http://www.inkscape.org/) -->

<svg
   width="279mm"
   height="210mm"
   viewBox="0 0 279 210"
   version="1.1"
   id="svg5"
   inkscape:version="1.1 (c4e8f9ed74, 2021-05-24)"
   sodipodi:docname="PathologicalMesh.svg"
   xmlns:inkscape="http://www.inkscape.org/namespaces/inkscape"
   xmlns:sodipodi="http://sodipodi.sourceforge.net/DTD/sodipodi-0.dtd"
   xmlns="http://www.w3.org/2000/svg"
   xmlns:svg="http://www.w3.org/2000/svg">
  <sodipodi:namedview
     id="namedview7"
     pagecolor="#ffffff"
     bordercolor="#cccccc"
     borderopacity="1"
     inkscape:pageshadow="0"
     inkscape:pageopacity="1"
     inkscape:pagecheckerboard="0"
     inkscape:document-units="mm"
     showgrid="false"
     inkscape:zoom="1.6378242"
     inkscape:cx="559.58387"
     inkscape:cy="327.87402"
     inkscape:window-width="1920"
     inkscape:window-height="1002"
     inkscape:window-x="0"
     inkscape:window-y="38"
     inkscape:window-maximized="1"
     inkscape:current-layer="layer1" />
  <defs
     id="defs2">
    <linearGradient
       id="linearGradient3945"
       inkscape:swatch="solid">
      <stop
         style="stop-color:#000000;stop-opacity:1;"
         offset="0"
         id="stop3943" />
    </linearGradient>
  </defs>
  <g
     inkscape:label="Layer 1"
     inkscape:groupmode="layer"
     id="layer1">
    <path
       style="fill:#ced1ee;fill-opacity:1;stroke:#000000;stroke-width:1.365;stroke-linecap:butt;stroke-linejoin:miter;stroke-miterlimit:4;stroke-dasharray:none;stroke-opacity:1"
       d="m 67.085121,110.55362 c 10.148967,21.49265 36.256079,8.75895 53.806109,9.66901 25.05181,1.29907 47.46423,28.98045 74.05127,29.71756 16.16821,0.44826 26.34969,-4.12139 35.45797,-21.39761 C 255.11697,81.661349 222.6745,51.708859 182.8992,41.689659 131.26901,28.684259 47.907225,69.940249 67.085121,110.55362 Z"
       sodipodi:nodetypes="ssssss"
       id="path5663" />
    <path
       style="fill:none;fill-opacity:1;stroke:#ff0000;stroke-width:1;stroke-linecap:butt;stroke-linejoin:miter;stroke-miterlimit:4;stroke-dasharray:none;stroke-opacity:1"
       d="m 65.274606,103.43443 13.58341,18.72701 25.336424,-1.15598 17.88643,-1.0404 14.6431,3.93038 c 54.91164,25.63405 0,0 54.91164,25.63405 35.51595,-15.31685 0,0 35.51595,-15.31685 l 10.66121,-27.39694 -1.15604,-24.391367 c -35.80495,-34.448472 0,0 -35.80495,-34.448472 -50.03061,-8.005225 0,0 -50.03061,-8.005225 l -45.27802,12.224588 c -28.226515,19.854111 -2.4e-4,4e-5 -28.226515,19.854111 l -9.02349,11.415384 z"
       id="path56267"
       sodipodi:nodetypes="ccccccccccccccc" />
    <path
       style="fill:none;stroke:#000000;stroke-width:0.264583px;stroke-linecap:butt;stroke-linejoin:miter;stroke-opacity:1"
       d="m 150.82117,39.970635 v 0 l -18.01488,33.090591 3.91768,50.834214 14.0972,-83.924805 3.27543,37.627843 -17.37263,46.296962"
       id="path8038" />
    <path
       style="fill:none;stroke:#000000;stroke-width:0.264583px;stroke-linecap:butt;stroke-linejoin:miter;stroke-opacity:1"
       d="M 154.0966,77.598478 202.2647,72.656633 187.33259,102.51005 146.7573,96.922168 Z"
       id="path8040"
       sodipodi:nodetypes="ccccc" />
    <path
       style="fill:none;stroke:#000000;stroke-width:0.264583px;stroke-linecap:butt;stroke-linejoin:miter;stroke-opacity:1"
       d="m 187.33259,102.51005 -50.60862,21.38539"
       id="path8042" />
    <path
       style="fill:none;stroke:#000000;stroke-width:0.264583px;stroke-linecap:butt;stroke-linejoin:miter;stroke-opacity:1"
       d="m 165.46427,111.70016 26.17134,37.82933 35.51595,-15.31685 z"
       id="path8044" />
    <path
       style="fill:none;stroke:#000000;stroke-width:0.264583px;stroke-linecap:butt;stroke-linejoin:miter;stroke-opacity:1"
       d="m 187.33259,102.51005 39.81897,31.70259"
       id="path8046" />
    <path
       style="fill:none;stroke:#000000;stroke-width:0.264583px;stroke-linecap:butt;stroke-linejoin:miter;stroke-opacity:1"
       d="m 202.2647,72.656633 35.54807,34.159067 -10.66121,27.39694"
       id="path8048" />
    <path
       style="fill:none;stroke:#000000;stroke-width:0.264583px;stroke-linecap:butt;stroke-linejoin:miter;stroke-opacity:1"
       d="m 136.72397,123.89544 54.91164,25.63405"
       id="path8050" />
    <path
       style="fill:none;stroke:#000000;stroke-width:0.264583px;stroke-linecap:butt;stroke-linejoin:miter;stroke-opacity:1"
       d="m 150.82117,39.970635 51.44353,32.685998 -1.41292,-24.680772 35.80495,34.448472 1.15604,24.391367"
       id="path8052" />
    <path
       style="fill:none;stroke:#000000;stroke-width:0.264583px;stroke-linecap:butt;stroke-linejoin:miter;stroke-opacity:1"
       d="M 200.85178,47.975861 150.82117,39.970635 105.54315,52.195224 132.80629,73.061226 77.316635,72.049335 105.54315,52.195224"
       id="path8054" />
    <path
       style="fill:none;stroke:#000000;stroke-width:0.264583px;stroke-linecap:butt;stroke-linejoin:miter;stroke-opacity:1"
       d="m 132.80629,73.061226 v 0 l -64.513147,10.403493 9.02349,-11.415384"
       id="path8056" />
    <path
       style="fill:none;stroke:#000000;stroke-width:0.264583px;stroke-linecap:butt;stroke-linejoin:miter;stroke-opacity:1"
       d="M 134.50594,95.539534 65.274605,103.43443 68.293143,83.464719"
       id="path8058"
       sodipodi:nodetypes="ccc" />
    <path
       style="fill:none;stroke:#000000;stroke-width:0.264583px;stroke-linecap:butt;stroke-linejoin:miter;stroke-opacity:1"
       d="m 78.858014,122.16144 57.200346,-7.08077"
       id="path8060"
       sodipodi:nodetypes="cc" />
    <path
       style="fill:none;stroke:#000000;stroke-width:0.264583px;stroke-linecap:butt;stroke-linejoin:miter;stroke-opacity:1"
       d="m 65.274605,103.43443 c 13.583411,18.72701 1e-6,0 13.583409,18.72701"
       id="path8062"
       sodipodi:nodetypes="cc" />
    <path
       style="fill:none;stroke:#000000;stroke-width:0.264583px;stroke-linecap:butt;stroke-linejoin:miter;stroke-opacity:1"
       d="m 136.72397,123.89544 -14.6431,-3.93038 13.97749,-4.88439"
       id="path8064"
       sodipodi:nodetypes="ccc" />
    <path
       style="fill:none;stroke:#000000;stroke-width:0.264583px;stroke-linecap:butt;stroke-linejoin:miter;stroke-opacity:1"
       d="m 122.08087,119.96506 v 0 l -43.222856,2.19638"
       id="path8066" />
    <path
       style="fill:none;stroke:#000000;stroke-width:0.264583px;stroke-linecap:butt;stroke-linejoin:miter;stroke-opacity:1"
       d="m 153.73683,72.7244 5.55406,4.309068"
       id="path10489"
       sodipodi:nodetypes="cc" />
  </g>
</svg>
