<?xml version="1.0" encoding="UTF-8" standalone="no"?>
<!-- Created with Inkscape (http://www.inkscape.org/) -->

<svg
   width="297mm"
   height="210mm"
   viewBox="0 0 297 210"
   version="1.1"
   id="svg5"
   inkscape:version="1.1 (c4e8f9ed74, 2021-05-24)"
   sodipodi:docname="RD.svg"
   inkscape:export-filename="/home/ikoo/Documents/8_Ecole/2_Phd/thesis/Pictures/RawSVGFiles/RDSchemeI.svg"
   inkscape:export-xdpi="720"
   inkscape:export-ydpi="720"
   xmlns:inkscape="http://www.inkscape.org/namespaces/inkscape"
   xmlns:sodipodi="http://sodipodi.sourceforge.net/DTD/sodipodi-0.dtd"
   xmlns="http://www.w3.org/2000/svg"
   xmlns:svg="http://www.w3.org/2000/svg">
  <sodipodi:namedview
     id="namedview7"
     pagecolor="#ffffff"
     bordercolor="#666666"
     borderopacity="1.0"
     inkscape:pageshadow="2"
     inkscape:pageopacity="0.0"
     inkscape:pagecheckerboard="0"
     inkscape:document-units="mm"
     showgrid="false"
     inkscape:zoom="0.65353026"
     inkscape:cx="508.03452"
     inkscape:cy="961.39575"
     inkscape:window-width="1920"
     inkscape:window-height="1002"
     inkscape:window-x="0"
     inkscape:window-y="38"
     inkscape:window-maximized="1"
     inkscape:current-layer="layer1"
     inkscape:snap-intersection-paths="true"
     inkscape:snap-smooth-nodes="false"
     inkscape:snap-midpoints="false"
     inkscape:object-paths="true"
     inkscape:object-nodes="true"
     inkscape:rotation="1" />
  <defs
     id="defs2">
    <rect
       x="626.80932"
       y="413.29837"
       width="55.204492"
       height="45.149847"
       id="rect14956" />
    <rect
       x="201.49218"
       y="627.223"
       width="565.09479"
       height="166.74997"
       id="rect4813" />
    <rect
       x="626.80933"
       y="413.29837"
       width="55.204491"
       height="45.149845"
       id="rect14956-2" />
    <rect
       x="626.80933"
       y="413.29837"
       width="55.204491"
       height="45.149845"
       id="rect14956-8" />
  </defs>
  <g
     inkscape:label="Layer 1"
     inkscape:groupmode="layer"
     id="layer1">
    <g
       id="g1989"
       transform="translate(28.045845)" />
    <text
       xml:space="preserve"
       transform="scale(0.26458333)"
       id="text4811"
       style="font-style:normal;font-weight:normal;font-size:40px;line-height:1.25;font-family:sans-serif;white-space:pre;shape-inside:url(#rect4813);fill:#000000;fill-opacity:1;stroke:none"
       inkscape:export-filename="/home/ikoo/Documents/8_Ecole/2_Phd/thesis/Pictures/RawSVGFiles/RDSchemeI.svg"
       inkscape:export-xdpi="720"
       inkscape:export-ydpi="720"><tspan
         x="201.49219"
         y="662.61328"
         id="tspan16403">CG - Pointwise Dofs only P2</tspan></text>
    <g
       id="g16086">
      <g
         id="g2146"
         transform="translate(-55.792324,25.272107)"
         inkscape:export-filename="/home/ikoo/Documents/8_Ecole/2_Phd/thesis/Pictures/RawSVGFiles/RDSchemeI.svg"
         inkscape:export-xdpi="720"
         inkscape:export-ydpi="720">
        <path
           style="fill:none;stroke:#000000;stroke-width:0.264583px;stroke-linecap:butt;stroke-linejoin:miter;stroke-opacity:1"
           d="m 33.619229,50.805561 -7.49358,47.289443 47.459339,-21.74415 z"
           id="path1211" />
        <path
           style="fill:none;stroke:#000000;stroke-width:0.264583px;stroke-linecap:butt;stroke-linejoin:miter;stroke-opacity:1"
           d="m 33.619229,50.805558 28.975179,-6.784831 17.62127,8.869344 -6.63069,23.46078 -39.965759,-25.545293"
           id="path1213"
           sodipodi:nodetypes="ccccc" />
        <path
           style="fill:none;stroke:#000000;stroke-width:0.264583px;stroke-linecap:butt;stroke-linejoin:miter;stroke-opacity:1"
           d="M 26.125649,98.094994 77.899478,109.25318 109.00918,79.784134 80.215678,52.890071 73.584988,76.350854 26.125649,98.094994"
           id="path1343" />
        <rect
           style="opacity:0.463371;fill:none;stroke:#2e0000;stroke-width:1.41111;stroke-linejoin:round;stroke-opacity:0.491087"
           id="rect1854"
           width="117.71735"
           height="99.851433"
           x="6.2272587"
           y="27.397366" />
      </g>
      <text
         xml:space="preserve"
         transform="matrix(0.26458333,0,0,0.26458333,-150.09101,4.564968)"
         id="text14954-0"
         style="font-style:normal;font-weight:normal;font-size:14.6667px;line-height:1.25;font-family:sans-serif;white-space:pre;shape-inside:url(#rect14956-2);fill:#000000;fill-opacity:1;stroke:none"
         inkscape:export-filename="/home/ikoo/Documents/8_Ecole/2_Phd/thesis/Pictures/RawSVGFiles/RDSchemeI.svg"
         inkscape:export-xdpi="720"
         inkscape:export-ydpi="720"><tspan
           x="626.80859"
           y="426.27542"
           id="tspan16405">\Phi</tspan></text>
    </g>
    <g
       id="g16022">
      <path
         style="fill:none;fill-opacity:0.027198;stroke:#000000;stroke-width:0.1;stroke-linecap:butt;stroke-linejoin:miter;stroke-miterlimit:4;stroke-dasharray:0.1, 0.4;stroke-dashoffset:0;stroke-opacity:1"
         d="m 315.65605,76.164139 -5.90931,2.06918 -5.02515,2.94227 7.77279,5.14027 6.21573,4.86888 5.43337,-4.34776 3.30611,-4.86678 -6.05372,-3.21575 z"
         id="path22905"
         inkscape:export-filename="/home/ikoo/Documents/8_Ecole/2_Phd/thesis/Pictures/RawSVGFiles/RDSchemeI.svg"
         inkscape:export-xdpi="720"
         inkscape:export-ydpi="720" />
      <path
         style="fill:none;fill-opacity:0.027198;stroke:#000000;stroke-width:0.1;stroke-linecap:butt;stroke-linejoin:miter;stroke-miterlimit:4;stroke-dasharray:0.1, 0.4;stroke-dashoffset:0;stroke-opacity:1"
         d="m 292.46555,91.261757 -2.11264,9.476583 0.48701,10.66877 9.50442,-4.28245 8.94257,-5.89536 -7.06916,-5.926995 z"
         id="path27832"
         inkscape:export-filename="/home/ikoo/Documents/8_Ecole/2_Phd/thesis/Pictures/RawSVGFiles/RDSchemeI.svg"
         inkscape:export-xdpi="720"
         inkscape:export-ydpi="720" />
      <path
         style="fill:none;fill-opacity:0.027198;stroke:#000000;stroke-width:0.1;stroke-linecap:butt;stroke-linejoin:miter;stroke-miterlimit:4;stroke-dasharray:0.1, 0.4;stroke-dashoffset:0;stroke-opacity:1"
         d="m 309.28691,101.2293 6.23438,-6.024305 3.26299,-4.080716 12.00003,4.116706 1.61441,14.110395 -17.29166,-1.01191 z"
         id="path7436"
         sodipodi:nodetypes="ccccccc"
         inkscape:export-filename="/home/ikoo/Documents/8_Ecole/2_Phd/thesis/Pictures/RawSVGFiles/RDSchemeI.svg"
         inkscape:export-xdpi="720"
         inkscape:export-ydpi="720" />
      <path
         style="fill:none;fill-opacity:0.027198;stroke:#000000;stroke-width:0.1;stroke-linecap:butt;stroke-linejoin:miter;stroke-miterlimit:4;stroke-dasharray:0.1, 0.4;stroke-dashoffset:0;stroke-opacity:1"
         d="m 339.71031,128.45201 -9.25562,-1.53474 9.89938,-7.76642 8.93088,-10.68251 5.90809,5.33562 10.3381,8.09905 -7.14626,6.41316 -6.73788,6.68443 -11.93669,-6.54859"
         id="path11631"
         inkscape:export-filename="/home/ikoo/Documents/8_Ecole/2_Phd/thesis/Pictures/RawSVGFiles/RDSchemeI.svg"
         inkscape:export-xdpi="720"
         inkscape:export-ydpi="720" />
      <path
         style="fill:none;fill-opacity:0.027198;stroke:#000000;stroke-width:0.1;stroke-linecap:butt;stroke-linejoin:miter;stroke-miterlimit:4;stroke-dasharray:0.1, 0.4;stroke-dashoffset:0;stroke-opacity:1"
         d="m 290.83993,111.40711 9.50441,-4.28245 8.94254,-5.89537 5.82018,7.11018 17.19065,0.97825 -13.66899,6.12479 -11.81547,6.57472 -13.29154,-3.24941 z"
         id="path5712"
         sodipodi:nodetypes="ccccccccc"
         inkscape:export-filename="/home/ikoo/Documents/8_Ecole/2_Phd/thesis/Pictures/RawSVGFiles/RDSchemeI.svg"
         inkscape:export-xdpi="720"
         inkscape:export-ydpi="720" />
      <path
         style="fill:none;fill-opacity:0.027198;stroke:#000000;stroke-width:0.1;stroke-linecap:butt;stroke-linejoin:miter;stroke-miterlimit:4;stroke-dasharray:0.1, 0.4;stroke-dashoffset:0;stroke-opacity:1"
         d="m 306.73909,122.0777 12.89409,1.65086 10.82152,3.18871 9.89938,-7.76642 8.93088,-10.68251 -7.02591,-6.05195 -3.52602,-6.461925 -6.99791,7.062485 0.6636,6.33443 -13.8435,6.15112 -11.81613,6.5752"
         id="path8701"
         sodipodi:nodetypes="ccccccccccc"
         inkscape:export-filename="/home/ikoo/Documents/8_Ecole/2_Phd/thesis/Pictures/RawSVGFiles/RDSchemeI.svg"
         inkscape:export-xdpi="720"
         inkscape:export-ydpi="720" />
      <path
         style="fill:none;fill-opacity:0.027198;stroke:#000000;stroke-width:0.1;stroke-linecap:butt;stroke-linejoin:miter;stroke-miterlimit:4;stroke-dasharray:0.1, 0.4;stroke-dashoffset:0;stroke-opacity:1"
         d="m 346.10994,107.41 6.94547,-8.294229 2.89142,-12.144126 13.26684,2.56063 5.70537,13.500895 -4.79541,16.98687 -7.76751,0.82463 -10.3381,-8.09905 z"
         id="path12920"
         inkscape:export-filename="/home/ikoo/Documents/8_Ecole/2_Phd/thesis/Pictures/RawSVGFiles/RDSchemeI.svg"
         inkscape:export-xdpi="720"
         inkscape:export-ydpi="720" />
      <path
         style="fill:none;fill-opacity:0.027198;stroke:#000000;stroke-width:0.1;stroke-linecap:butt;stroke-linejoin:miter;stroke-miterlimit:4;stroke-dasharray:0.1, 0.4;stroke-dashoffset:0;stroke-opacity:1"
         d="m 287.59075,110.40924 v 0 l -8.45112,0.5248 -10.39182,2.63059 -8.43736,12.73492 5.20532,15.59798 22.58291,-5.77174 3.84215,-9.12226 11.62323,-5.98417 -13.29153,-3.24941 -2.68179,-7.36071"
         id="path6642"
         inkscape:export-filename="/home/ikoo/Documents/8_Ecole/2_Phd/thesis/Pictures/RawSVGFiles/RDSchemeI.svg"
         inkscape:export-xdpi="720"
         inkscape:export-ydpi="720" />
      <path
         style="fill:none;fill-opacity:0.027198;stroke:#000000;stroke-width:0.1;stroke-linecap:butt;stroke-linejoin:miter;stroke-miterlimit:4;stroke-dasharray:0.1, 0.4;stroke-dashoffset:0;stroke-opacity:1"
         d="m 289.21637,90.263895 -6.38606,-2.62038 -18.58247,0.14706 -2.27158,13.702125 6.77156,12.07193 10.39184,-2.63059 8.45109,-0.5248 -0.48702,-10.668769 2.11264,-9.476576 -6.38606,-2.62038"
         id="path6409"
         inkscape:export-filename="/home/ikoo/Documents/8_Ecole/2_Phd/thesis/Pictures/RawSVGFiles/RDSchemeI.svg"
         inkscape:export-xdpi="720"
         inkscape:export-ydpi="720" />
      <path
         style="fill:none;fill-opacity:0.027198;stroke:#000000;stroke-width:0.1;stroke-linecap:butt;stroke-linejoin:miter;stroke-miterlimit:4;stroke-dasharray:0.1, 0.4;stroke-dashoffset:0;stroke-opacity:1"
         d="m 282.63045,87.561495 6.5859,2.70239 6.39011,-6.70908 5.94009,-3.43755 -8.02265,-5.69272 -3.70896,-9.55268 -13.08224,-0.0414 -8.5866,11.9266 z"
         id="path6374"
         inkscape:transform-center-x="-9.248048"
         inkscape:transform-center-y="-0.094853821"
         inkscape:export-filename="/home/ikoo/Documents/8_Ecole/2_Phd/thesis/Pictures/RawSVGFiles/RDSchemeI.svg"
         inkscape:export-xdpi="720"
         inkscape:export-ydpi="720" />
      <g
         id="g2146-93"
         transform="translate(321.51805,31.722866)"
         style="stroke-width:0.9;stroke-miterlimit:4;stroke-dasharray:none;stroke-dashoffset:0;stroke:#000000;stroke-opacity:1"
         inkscape:export-filename="/home/ikoo/Documents/8_Ecole/2_Phd/thesis/Pictures/RawSVGFiles/RDSchemeI.svg"
         inkscape:export-xdpi="720"
         inkscape:export-ydpi="720">
        <rect
           style="opacity:0.463371;fill:none;stroke:#000000;stroke-width:1.5;stroke-linejoin:round;stroke-miterlimit:4;stroke-dasharray:none;stroke-dashoffset:0;stroke-opacity:1"
           id="rect1854-2"
           width="117.71735"
           height="99.851433"
           x="-60.315681"
           y="21.282257" />
        <path
           style="fill:none;stroke:#000000;stroke-width:0.9;stroke-linecap:butt;stroke-linejoin:miter;stroke-miterlimit:4;stroke-dasharray:none;stroke-dashoffset:0;stroke-opacity:1"
           d="m -32.923711,44.690452 -7.49358,47.289443 47.4593387,-21.74415 z"
           id="path1211-6" />
        <path
           style="fill:none;stroke:#000000;stroke-width:0.9;stroke-linecap:butt;stroke-linejoin:miter;stroke-miterlimit:4;stroke-dasharray:none;stroke-dashoffset:0;stroke-opacity:1"
           d="M -32.923711,44.690452 -3.9485323,37.905621 13.672738,46.774965 7.0420477,70.235745 -32.923711,44.690452"
           id="path1213-0"
           sodipodi:nodetypes="ccccc" />
        <path
           style="fill:none;stroke:#000000;stroke-width:0.9;stroke-linecap:butt;stroke-linejoin:miter;stroke-miterlimit:4;stroke-dasharray:none;stroke-dashoffset:0;stroke-opacity:1"
           d="M -40.417291,91.979885 11.356538,103.13807 42.46624,73.669025 13.672738,46.774962 7.0420477,70.235745 -40.417291,91.979885"
           id="path1343-6" />
      </g>
      <circle
         style="opacity:0.981746;fill:#000000;fill-opacity:1;stroke:none;stroke-width:0.1;stroke-linejoin:round;stroke-miterlimit:4;stroke-dasharray:0.1, 0.4;stroke-dashoffset:0;stroke-opacity:0.491087"
         id="path2370-7-7"
         cx="348.15018"
         cy="120.16396"
         r="1.5"
         inkscape:export-filename="/home/ikoo/Documents/8_Ecole/2_Phd/thesis/Pictures/RawSVGFiles/RDSchemeI.svg"
         inkscape:export-xdpi="720"
         inkscape:export-ydpi="720" />
      <circle
         style="opacity:0.981746;fill:#000000;fill-opacity:1;stroke:none;stroke-width:0.529519;stroke-linejoin:round;stroke-miterlimit:4;stroke-dasharray:none;stroke-opacity:0.491087"
         id="path2370-6-17"
         cx="363.40787"
         cy="105.67501"
         r="1.5"
         inkscape:export-filename="/home/ikoo/Documents/8_Ecole/2_Phd/thesis/Pictures/RawSVGFiles/RDSchemeI.svg"
         inkscape:export-xdpi="720"
         inkscape:export-ydpi="720" />
      <circle
         style="opacity:0.981746;fill:#000000;fill-opacity:1;stroke:none;stroke-width:0.529519;stroke-linejoin:round;stroke-miterlimit:4;stroke-dasharray:none;stroke-opacity:0.491087"
         id="path2370-6-1-2"
         cx="335.19757"
         cy="78.862549"
         r="1.5"
         inkscape:export-filename="/home/ikoo/Documents/8_Ecole/2_Phd/thesis/Pictures/RawSVGFiles/RDSchemeI.svg"
         inkscape:export-xdpi="720"
         inkscape:export-ydpi="720" />
      <circle
         style="opacity:0.981746;fill:#000000;fill-opacity:1;stroke:none;stroke-width:0.529519;stroke-linejoin:round;stroke-miterlimit:4;stroke-dasharray:none;stroke-opacity:0.491087"
         id="path2370-6-8-7"
         cx="328.39374"
         cy="102.05415"
         r="1.5"
         inkscape:export-filename="/home/ikoo/Documents/8_Ecole/2_Phd/thesis/Pictures/RawSVGFiles/RDSchemeI.svg"
         inkscape:export-xdpi="720"
         inkscape:export-ydpi="720" />
      <circle
         style="fill:#27586e;fill-opacity:0.027198;stroke:none;stroke-width:0.140102;stroke-linejoin:round;stroke-miterlimit:4;stroke-dasharray:0.840612, 0.140102;stroke-dashoffset:0;stroke-opacity:0.491087"
         id="path2370-6-7-2"
         cx="278.30627"
         cy="122.74312"
         r="1.5"
         inkscape:export-filename="/home/ikoo/Documents/8_Ecole/2_Phd/thesis/Pictures/RawSVGFiles/RDSchemeI.svg"
         inkscape:export-xdpi="720"
         inkscape:export-ydpi="720" />
      <circle
         style="opacity:0.981746;fill:#000000;fill-opacity:1;stroke:none;stroke-width:0.529519;stroke-linejoin:round;stroke-miterlimit:4;stroke-dasharray:none;stroke-opacity:0.491087"
         id="path2370-6-9-2"
         cx="308.4982"
         cy="129.65903"
         r="1.5"
         inkscape:export-filename="/home/ikoo/Documents/8_Ecole/2_Phd/thesis/Pictures/RawSVGFiles/RDSchemeI.svg"
         inkscape:export-xdpi="720"
         inkscape:export-ydpi="720" />
      <circle
         style="fill:#000000;fill-opacity:1;stroke:none;stroke-width:0.529519;stroke-linejoin:round;stroke-miterlimit:4;stroke-dasharray:none;stroke-opacity:0.491087"
         id="path2370-6-0-1"
         cx="350.0062"
         cy="92.321411"
         r="1.5"
         inkscape:export-filename="/home/ikoo/Documents/8_Ecole/2_Phd/thesis/Pictures/RawSVGFiles/RDSchemeI.svg"
         inkscape:export-xdpi="720"
         inkscape:export-ydpi="720" />
      <circle
         style="fill:#000000;fill-opacity:1;stroke:none;stroke-width:0.529519;stroke-linejoin:round;stroke-miterlimit:4;stroke-dasharray:none;stroke-opacity:0.491087"
         id="path2370-6-23-0"
         cx="304.86905"
         cy="112.92558"
         r="1.5"
         inkscape:export-filename="/home/ikoo/Documents/8_Ecole/2_Phd/thesis/Pictures/RawSVGFiles/RDSchemeI.svg"
         inkscape:export-xdpi="720"
         inkscape:export-ydpi="720" />
      <circle
         style="fill:#000000;fill-opacity:1;stroke:none;stroke-width:0.529519;stroke-linejoin:round;stroke-miterlimit:4;stroke-dasharray:none;stroke-opacity:0.491087"
         id="path2370-6-28-5"
         cx="317.61725"
         cy="69.780426"
         r="1.5"
         inkscape:export-filename="/home/ikoo/Documents/8_Ecole/2_Phd/thesis/Pictures/RawSVGFiles/RDSchemeI.svg"
         inkscape:export-xdpi="720"
         inkscape:export-ydpi="720" />
      <circle
         style="fill:#000000;fill-opacity:1;stroke:none;stroke-width:0.529519;stroke-linejoin:round;stroke-miterlimit:4;stroke-dasharray:none;stroke-opacity:0.491087"
         id="path2370-6-28-5-59"
         cx="297.78397"
         cy="99.087692"
         r="1.5"
         inkscape:export-filename="/home/ikoo/Documents/8_Ecole/2_Phd/thesis/Pictures/RawSVGFiles/RDSchemeI.svg"
         inkscape:export-xdpi="720"
         inkscape:export-ydpi="720" />
      <circle
         style="fill:#000000;fill-opacity:1;stroke:none;stroke-width:0.529519;stroke-linejoin:round;stroke-miterlimit:4;stroke-dasharray:none;stroke-opacity:0.491087"
         id="path2370-6-97-9"
         cx="289.01871"
         cy="76.662971"
         r="1.5"
         inkscape:export-filename="/home/ikoo/Documents/8_Ecole/2_Phd/thesis/Pictures/RawSVGFiles/RDSchemeI.svg"
         inkscape:export-xdpi="720"
         inkscape:export-ydpi="720" />
      <path
         style="fill:none;stroke:#000000;stroke-width:0.529519;stroke-linecap:butt;stroke-linejoin:miter;stroke-miterlimit:4;stroke-dasharray:none;stroke-opacity:1"
         d="m 336.12547,108.29853 c 0,0 -0.23752,-4.13873 -5.32883,-4.8379"
         id="path23093-1"
         sodipodi:nodetypes="cc"
         inkscape:export-filename="/home/ikoo/Documents/8_Ecole/2_Phd/thesis/Pictures/RawSVGFiles/RDSchemeI.svg"
         inkscape:export-xdpi="720"
         inkscape:export-ydpi="720" />
      <path
         style="fill:none;stroke:#000000;stroke-width:0.529519;stroke-linecap:butt;stroke-linejoin:miter;stroke-miterlimit:4;stroke-dasharray:none;stroke-opacity:1"
         d="m 324.41963,112.28318 c 0,0 3.34615,-2.15438 6.72965,1.42143"
         id="path23093-1-0"
         sodipodi:nodetypes="cc"
         inkscape:export-filename="/home/ikoo/Documents/8_Ecole/2_Phd/thesis/Pictures/RawSVGFiles/RDSchemeI.svg"
         inkscape:export-xdpi="720"
         inkscape:export-ydpi="720" />
      <path
         style="fill:none;stroke:#000000;stroke-width:0.529519;stroke-linecap:butt;stroke-linejoin:miter;stroke-miterlimit:4;stroke-dasharray:none;stroke-opacity:1"
         d="m 327.56609,99.142065 c 0,0 -0.58105,-3.84016 -3.47111,-5.537711"
         id="path23093-1-9"
         sodipodi:nodetypes="cc"
         inkscape:export-filename="/home/ikoo/Documents/8_Ecole/2_Phd/thesis/Pictures/RawSVGFiles/RDSchemeI.svg"
         inkscape:export-xdpi="720"
         inkscape:export-ydpi="720" />
      <path
         style="fill:none;stroke:#000000;stroke-width:0.529519;stroke-linecap:butt;stroke-linejoin:miter;stroke-miterlimit:4;stroke-dasharray:none;stroke-opacity:1"
         d="m 296.68739,108.84179 c 3.86872,-0.31008 5.91579,2.70265 5.91579,2.70265"
         id="path23095-1-0"
         sodipodi:nodetypes="cc"
         inkscape:transform-center-x="3.2918552"
         inkscape:transform-center-y="1.7702206"
         inkscape:export-filename="/home/ikoo/Documents/8_Ecole/2_Phd/thesis/Pictures/RawSVGFiles/RDSchemeI.svg"
         inkscape:export-xdpi="720"
         inkscape:export-ydpi="720" />
      <path
         style="fill:none;stroke:#000000;stroke-width:0.529519;stroke-linecap:butt;stroke-linejoin:miter;stroke-miterlimit:4;stroke-dasharray:none;stroke-opacity:1"
         d="m 300.45616,99.472325 c 3.73735,-1.04658 6.32442,1.517435 6.32442,1.517435"
         id="path23095-1-0-6"
         sodipodi:nodetypes="cc"
         inkscape:transform-center-x="2.8889102"
         inkscape:transform-center-y="2.2543794"
         inkscape:export-filename="/home/ikoo/Documents/8_Ecole/2_Phd/thesis/Pictures/RawSVGFiles/RDSchemeI.svg"
         inkscape:export-xdpi="720"
         inkscape:export-ydpi="720" />
      <path
         style="fill:none;stroke:#000000;stroke-width:0.529519;stroke-linecap:butt;stroke-linejoin:miter;stroke-miterlimit:4;stroke-dasharray:none;stroke-opacity:1"
         d="m 307.83597,113.6002 c 3.86872,-0.31008 5.91579,2.70265 5.91579,2.70265"
         id="path23095-1-0-0"
         sodipodi:nodetypes="cc"
         inkscape:transform-center-x="3.2918552"
         inkscape:transform-center-y="1.7702206"
         inkscape:export-filename="/home/ikoo/Documents/8_Ecole/2_Phd/thesis/Pictures/RawSVGFiles/RDSchemeI.svg"
         inkscape:export-xdpi="720"
         inkscape:export-ydpi="720" />
      <path
         style="fill:none;stroke:#000000;stroke-width:0.529519;stroke-linecap:butt;stroke-linejoin:miter;stroke-miterlimit:4;stroke-dasharray:none;stroke-opacity:1"
         d="m 316.27972,102.71277 c 2.86593,-2.61717 6.33034,-1.4925 6.33034,-1.4925"
         id="path23095-1-0-0-4"
         sodipodi:nodetypes="cc"
         inkscape:transform-center-x="1.5080502"
         inkscape:transform-center-y="3.3055787"
         inkscape:export-filename="/home/ikoo/Documents/8_Ecole/2_Phd/thesis/Pictures/RawSVGFiles/RDSchemeI.svg"
         inkscape:export-xdpi="720"
         inkscape:export-ydpi="720" />
      <path
         style="fill:none;stroke:#000000;stroke-width:0.529519;stroke-linecap:butt;stroke-linejoin:miter;stroke-miterlimit:4;stroke-dasharray:none;stroke-opacity:1"
         d="m 298.48586,90.479631 c 4.00306,-3.197923 6.52421,-1.135844 6.52421,-1.135844"
         id="path23095-1-0-3"
         sodipodi:nodetypes="cc"
         inkscape:transform-center-x="-0.0351848"
         inkscape:transform-center-y="3.7427936"
         inkscape:export-filename="/home/ikoo/Documents/8_Ecole/2_Phd/thesis/Pictures/RawSVGFiles/RDSchemeI.svg"
         inkscape:export-xdpi="720"
         inkscape:export-ydpi="720" />
      <path
         style="fill:none;stroke:#000000;stroke-width:0.529519;stroke-linecap:butt;stroke-linejoin:miter;stroke-miterlimit:4;stroke-dasharray:none;stroke-opacity:1"
         d="m 310.73999,88.2507 c 3.21413,-2.175432 6.4796,-0.561842 6.4796,-0.561842"
         id="path23095-1-0-3-8"
         sodipodi:nodetypes="cc"
         inkscape:transform-center-x="1.9873602"
         inkscape:transform-center-y="2.8838969"
         inkscape:export-filename="/home/ikoo/Documents/8_Ecole/2_Phd/thesis/Pictures/RawSVGFiles/RDSchemeI.svg"
         inkscape:export-xdpi="720"
         inkscape:export-ydpi="720" />
      <path
         style="fill:none;stroke:#000000;stroke-width:0.529519;stroke-linecap:butt;stroke-linejoin:miter;stroke-miterlimit:4;stroke-dasharray:none;stroke-opacity:1"
         d="m 309.61209,80.054449 c 3.73472,-1.05592 6.3282,1.501587 6.3282,1.501587"
         id="path23095-1-0-3-8-2"
         sodipodi:nodetypes="cc"
         inkscape:transform-center-x="2.8829402"
         inkscape:transform-center-y="2.2593514"
         inkscape:export-filename="/home/ikoo/Documents/8_Ecole/2_Phd/thesis/Pictures/RawSVGFiles/RDSchemeI.svg"
         inkscape:export-xdpi="720"
         inkscape:export-ydpi="720" />
      <text
         xml:space="preserve"
         style="font-size:3.175px;line-height:1.25;font-family:sans-serif;stroke-width:0.529519;stroke-miterlimit:4;stroke-dasharray:none"
         x="330.85663"
         y="117.64141"
         id="text32790-10-9"
         inkscape:export-filename="/home/ikoo/Documents/8_Ecole/2_Phd/thesis/Pictures/RawSVGFiles/RDSchemeI.svg"
         inkscape:export-xdpi="720"
         inkscape:export-ydpi="720"><tspan
           sodipodi:role="line"
           id="tspan32788-63-0"
           style="stroke-width:0.529519;stroke-miterlimit:4;stroke-dasharray:none"
           x="330.85663"
           y="117.64141">\beta</tspan></text>
      <path
         style="fill:none;stroke:#000000;stroke-width:0.529519;stroke-linecap:butt;stroke-linejoin:miter;stroke-miterlimit:4;stroke-dasharray:none;stroke-opacity:1"
         d="m 334.87541,90.643609 c 3.798,0.798953 4.90742,4.268276 4.90742,4.268276"
         id="path23095-1-0-3-5"
         sodipodi:nodetypes="cc"
         inkscape:transform-center-x="3.6617302"
         inkscape:transform-center-y="0.7755521"
         inkscape:export-filename="/home/ikoo/Documents/8_Ecole/2_Phd/thesis/Pictures/RawSVGFiles/RDSchemeI.svg"
         inkscape:export-xdpi="720"
         inkscape:export-ydpi="720" />
      <path
         style="fill:none;stroke:#000000;stroke-width:0.529519;stroke-linecap:butt;stroke-linejoin:miter;stroke-miterlimit:4;stroke-dasharray:none;stroke-opacity:1"
         d="m 323.86875,89.72221 c 3.14617,-2.272591 6.45941,-0.759493 6.45941,-0.759493"
         id="path23095-1-0-3-6"
         sodipodi:nodetypes="cc"
         inkscape:transform-center-x="1.8895552"
         inkscape:transform-center-y="2.9842307"
         inkscape:export-filename="/home/ikoo/Documents/8_Ecole/2_Phd/thesis/Pictures/RawSVGFiles/RDSchemeI.svg"
         inkscape:export-xdpi="720"
         inkscape:export-ydpi="720" />
      <path
         style="fill:none;fill-opacity:0.027198;stroke:#000000;stroke-width:0.1;stroke-linecap:butt;stroke-linejoin:miter;stroke-miterlimit:4;stroke-dasharray:0.1, 0.4;stroke-dashoffset:0;stroke-opacity:1"
         d="m 292.39137,91.322225 6.39011,-6.70909 5.94009,-3.43755 7.77282,5.14026 6.2157,4.86889 -3.263,4.08072 -6.23437,6.024315 -7.06914,-5.926995 -9.75221,-4.04054 6.39011,-6.70909"
         id="path7471"
         inkscape:export-filename="/home/ikoo/Documents/8_Ecole/2_Phd/thesis/Pictures/RawSVGFiles/RDSchemeI.svg"
         inkscape:export-xdpi="720"
         inkscape:export-ydpi="720" />
      <circle
         style="fill:#000000;fill-opacity:1;stroke:none;stroke-width:0.529519;stroke-linejoin:round;stroke-miterlimit:4;stroke-dasharray:none;stroke-opacity:0.491087"
         id="path2370-6-28-5-1"
         cx="308.68845"
         cy="89.059647"
         r="1.5"
         inkscape:export-filename="/home/ikoo/Documents/8_Ecole/2_Phd/thesis/Pictures/RawSVGFiles/RDSchemeI.svg"
         inkscape:export-xdpi="720"
         inkscape:export-ydpi="720" />
      <path
         style="fill:none;fill-opacity:0.027198;stroke:#000000;stroke-width:0.1;stroke-linecap:butt;stroke-linejoin:miter;stroke-miterlimit:4;stroke-dasharray:0.1, 0.4;stroke-dashoffset:0;stroke-opacity:1"
         d="m 291.94084,127.00354 11.62323,-5.98418 12.89409,1.65086 10.82152,3.18871 -10.80069,6.35776 -3.75568,13.10589 -9.42195,-8.57115 -15.20267,-0.62564"
         id="path8204"
         inkscape:export-filename="/home/ikoo/Documents/8_Ecole/2_Phd/thesis/Pictures/RawSVGFiles/RDSchemeI.svg"
         inkscape:export-xdpi="720"
         inkscape:export-ydpi="720" />
      <circle
         style="fill:#000000;fill-opacity:1;stroke:none;stroke-width:0.529519;stroke-linejoin:round;stroke-miterlimit:4;stroke-dasharray:none;stroke-opacity:0.491087"
         id="path2370-6-28-5-59-76"
         cx="334.31955"
         cy="115.64976"
         r="1.5"
         inkscape:export-filename="/home/ikoo/Documents/8_Ecole/2_Phd/thesis/Pictures/RawSVGFiles/RDSchemeI.svg"
         inkscape:export-xdpi="720"
         inkscape:export-ydpi="720" />
      <path
         style="fill:none;fill-opacity:0.027198;stroke:#000000;stroke-width:0.1;stroke-linecap:butt;stroke-linejoin:miter;stroke-miterlimit:4;stroke-dasharray:0.1, 0.4;stroke-dashoffset:0;stroke-opacity:1"
         d="m 349.28497,108.46834 6.96351,-8.3701 2.87338,-12.068261 -2.55476,-11.36574 -10.38187,-0.17678 -4.31596,10.18013 -3.13624,9.286866 3.78519,6.685175 6.76675,5.82871"
         id="path13483"
         inkscape:export-filename="/home/ikoo/Documents/8_Ecole/2_Phd/thesis/Pictures/RawSVGFiles/RDSchemeI.svg"
         inkscape:export-xdpi="720"
         inkscape:export-ydpi="720" />
      <path
         style="fill:none;fill-opacity:0.027198;stroke:#000000;stroke-width:0.1;stroke-linecap:butt;stroke-linejoin:miter;stroke-miterlimit:4;stroke-dasharray:0.1, 0.4;stroke-dashoffset:0;stroke-opacity:1"
         d="m 335.55801,94.896121 3.13623,-9.286866 4.31597,-10.18013 -16.31511,-10.81702 4.86307,8.57633 -5.35125,2.91748 -1.93237,4.80595 4.96975,4.57299 z"
         id="path13650"
         inkscape:export-filename="/home/ikoo/Documents/8_Ecole/2_Phd/thesis/Pictures/RawSVGFiles/RDSchemeI.svg"
         inkscape:export-xdpi="720"
         inkscape:export-ydpi="720" />
      <path
         style="fill:none;fill-opacity:0.027198;stroke:#000000;stroke-width:0.1;stroke-linecap:butt;stroke-linejoin:miter;stroke-miterlimit:4;stroke-dasharray:0.1, 0.4;stroke-dashoffset:0;stroke-opacity:1"
         d="m 324.27455,80.911865 -6.05371,-3.21575 -5.73982,-2.59032 5.70764,-2.76572 0.17719,-8.43748 8.32925,0.7095 4.86307,8.57634 -5.33794,2.91021 z"
         id="path14411"
         inkscape:export-filename="/home/ikoo/Documents/8_Ecole/2_Phd/thesis/Pictures/RawSVGFiles/RDSchemeI.svg"
         inkscape:export-xdpi="720"
         inkscape:export-ydpi="720" />
      <circle
         style="opacity:0.981746;fill:#000000;fill-opacity:1;stroke:none;stroke-width:0.529519;stroke-linejoin:round;stroke-miterlimit:4;stroke-dasharray:none;stroke-opacity:0.491087"
         id="path2370-7-36"
         cx="326.85825"
         cy="74.125343"
         r="1.5"
         inkscape:export-filename="/home/ikoo/Documents/8_Ecole/2_Phd/thesis/Pictures/RawSVGFiles/RDSchemeI.svg"
         inkscape:export-xdpi="720"
         inkscape:export-ydpi="720" />
      <circle
         style="opacity:0.981746;fill:#000000;fill-opacity:1;stroke:none;stroke-width:0.529519;stroke-linejoin:round;stroke-miterlimit:4;stroke-dasharray:none;stroke-opacity:0.491087"
         id="path2370-7-36-5"
         cx="332.15372"
         cy="89.790985"
         r="1.5"
         inkscape:export-filename="/home/ikoo/Documents/8_Ecole/2_Phd/thesis/Pictures/RawSVGFiles/RDSchemeI.svg"
         inkscape:export-xdpi="720"
         inkscape:export-ydpi="720" />
      <path
         style="fill:none;fill-opacity:0.027198;stroke:#876064;stroke-width:0.1;stroke-linecap:butt;stroke-linejoin:miter;stroke-miterlimit:4;stroke-dasharray:0.1, 0.4;stroke-dashoffset:0;stroke-opacity:1"
         d="m 306.87042,71.518335 5.60766,3.72796 5.71354,-3.04672 0.17129,-8.15648 -9.78881,-6.99626 -1.70368,14.4715"
         id="path15475"
         inkscape:export-filename="/home/ikoo/Documents/8_Ecole/2_Phd/thesis/Pictures/RawSVGFiles/RDSchemeI.svg"
         inkscape:export-xdpi="720"
         inkscape:export-ydpi="720" />
      <circle
         style="opacity:0.981746;fill:#000000;fill-opacity:1;stroke:none;stroke-width:0.529519;stroke-linejoin:round;stroke-miterlimit:4;stroke-dasharray:none;stroke-opacity:0.491087"
         id="path2370-7-36-4"
         cx="305.02069"
         cy="72.856308"
         r="1.5"
         inkscape:export-filename="/home/ikoo/Documents/8_Ecole/2_Phd/thesis/Pictures/RawSVGFiles/RDSchemeI.svg"
         inkscape:export-xdpi="720"
         inkscape:export-ydpi="720" />
      <circle
         style="opacity:0.981746;fill:#000000;fill-opacity:1;stroke:none;stroke-width:0.529519;stroke-linejoin:round;stroke-miterlimit:4;stroke-dasharray:none;stroke-opacity:0.491087"
         id="path2370-7-36-8"
         cx="285.34161"
         cy="99.465401"
         r="1.5"
         inkscape:export-filename="/home/ikoo/Documents/8_Ecole/2_Phd/thesis/Pictures/RawSVGFiles/RDSchemeI.svg"
         inkscape:export-xdpi="720"
         inkscape:export-ydpi="720" />
      <circle
         style="opacity:0.981746;fill:#000000;fill-opacity:1;stroke:none;stroke-width:0.529519;stroke-linejoin:round;stroke-miterlimit:4;stroke-dasharray:none;stroke-opacity:0.491087"
         id="path2370-7-36-1"
         cx="318.58377"
         cy="82.200859"
         r="1.5"
         inkscape:export-filename="/home/ikoo/Documents/8_Ecole/2_Phd/thesis/Pictures/RawSVGFiles/RDSchemeI.svg"
         inkscape:export-xdpi="720"
         inkscape:export-ydpi="720" />
      <circle
         style="opacity:0.981746;fill:#000000;fill-opacity:1;stroke:none;stroke-width:0.529519;stroke-linejoin:round;stroke-miterlimit:4;stroke-dasharray:none;stroke-opacity:0.491087"
         id="path2370-7-36-2"
         cx="333.4743"
         cy="134.63109"
         r="1.5"
         inkscape:export-filename="/home/ikoo/Documents/8_Ecole/2_Phd/thesis/Pictures/RawSVGFiles/RDSchemeI.svg"
         inkscape:export-xdpi="720"
         inkscape:export-ydpi="720" />
      <path
         style="fill:none;fill-opacity:0.027198;stroke:#000000;stroke-width:0.1;stroke-linecap:butt;stroke-linejoin:miter;stroke-miterlimit:4;stroke-dasharray:0.1, 0.4;stroke-dashoffset:0;stroke-opacity:1"
         d="m 318.7101,91.184747 5.43338,-4.347768 3.3061,-4.86678 4.96975,4.572989 6.30468,9.449197 -6.98889,7.024565 -1.02497,-7.715495 z"
         id="path28263"
         inkscape:export-filename="/home/ikoo/Documents/8_Ecole/2_Phd/thesis/Pictures/RawSVGFiles/RDSchemeI.svg"
         inkscape:export-xdpi="720"
         inkscape:export-ydpi="720" />
    </g>
    <g
       id="g16077">
      <g
         id="g2146-9"
         transform="translate(114.70508,25.272107)"
         inkscape:export-filename="/home/ikoo/Documents/8_Ecole/2_Phd/thesis/Pictures/RawSVGFiles/RDSchemeI.svg"
         inkscape:export-xdpi="720"
         inkscape:export-ydpi="720">
        <g
           id="g2288"
           transform="translate(-20.497414)">
          <path
             style="fill:none;stroke:#000000;stroke-width:0.264583px;stroke-linecap:butt;stroke-linejoin:miter;stroke-opacity:1"
             d="m 33.619229,50.805561 -7.49358,47.289443 47.459339,-21.74415 z"
             id="path1211-1" />
          <path
             style="fill:none;stroke:#000000;stroke-width:0.264583px;stroke-linecap:butt;stroke-linejoin:miter;stroke-opacity:1"
             d="m 33.619229,50.805558 28.975179,-6.784831 17.62127,8.869344 -6.63069,23.46078 -39.965759,-25.545293"
             id="path1213-2"
             sodipodi:nodetypes="ccccc" />
          <path
             style="fill:none;stroke:#000000;stroke-width:0.264583px;stroke-linecap:butt;stroke-linejoin:miter;stroke-opacity:1"
             d="M 26.125649,98.094994 77.899478,109.25318 109.00918,79.784134 80.215678,52.890071 73.584988,76.350854 26.125649,98.094994"
             id="path1343-7" />
          <rect
             style="opacity:0.463371;fill:none;stroke:#2e0000;stroke-width:1.41111;stroke-linejoin:round;stroke-opacity:0.491087"
             id="rect1854-0"
             width="117.71735"
             height="99.851433"
             x="6.2272587"
             y="27.397366" />
        </g>
      </g>
      <circle
         style="opacity:0.981746;fill:#000000;fill-opacity:1;stroke:none;stroke-width:0.79125;stroke-linejoin:round;stroke-opacity:0.491087"
         id="path2370"
         cx="171.94421"
         cy="134.02477"
         r="1.5"
         inkscape:export-filename="/home/ikoo/Documents/8_Ecole/2_Phd/thesis/Pictures/RawSVGFiles/RDSchemeI.svg"
         inkscape:export-xdpi="720"
         inkscape:export-ydpi="720" />
      <circle
         style="opacity:0.981746;fill:#000000;fill-opacity:1;stroke:none;stroke-width:0.79125;stroke-linejoin:round;stroke-opacity:0.491087"
         id="path2370-6"
         cx="202.496"
         cy="104.99794"
         r="1.5"
         inkscape:export-filename="/home/ikoo/Documents/8_Ecole/2_Phd/thesis/Pictures/RawSVGFiles/RDSchemeI.svg"
         inkscape:export-xdpi="720"
         inkscape:export-ydpi="720" />
      <circle
         style="opacity:0.981746;fill:#000000;fill-opacity:1;stroke:none;stroke-width:0.79125;stroke-linejoin:round;stroke-opacity:0.491087"
         id="path2370-6-1"
         cx="174.28572"
         cy="78.185463"
         r="1.5"
         inkscape:export-filename="/home/ikoo/Documents/8_Ecole/2_Phd/thesis/Pictures/RawSVGFiles/RDSchemeI.svg"
         inkscape:export-xdpi="720"
         inkscape:export-ydpi="720" />
      <circle
         style="opacity:0.981746;fill:#000000;fill-opacity:1;stroke:none;stroke-width:0.79125;stroke-linejoin:round;stroke-opacity:0.491087"
         id="path2370-6-8"
         cx="167.46648"
         cy="101.41405"
         r="1.5"
         inkscape:export-filename="/home/ikoo/Documents/8_Ecole/2_Phd/thesis/Pictures/RawSVGFiles/RDSchemeI.svg"
         inkscape:export-xdpi="720"
         inkscape:export-ydpi="720" />
      <circle
         style="opacity:1;fill:#000000;fill-opacity:1;stroke:none;stroke-width:0.79125;stroke-linejoin:round;stroke-opacity:0.491087"
         id="path2370-6-7"
         cx="120.56946"
         cy="123.12435"
         r="1.5"
         inkscape:export-filename="/home/ikoo/Documents/8_Ecole/2_Phd/thesis/Pictures/RawSVGFiles/RDSchemeI.svg"
         inkscape:export-xdpi="720"
         inkscape:export-ydpi="720" />
      <circle
         style="opacity:0.981746;fill:#000000;fill-opacity:1;stroke:none;stroke-width:0.79125;stroke-linejoin:round;stroke-opacity:0.491087"
         id="path2370-6-9"
         cx="147.58635"
         cy="128.98196"
         r="1.5"
         inkscape:export-filename="/home/ikoo/Documents/8_Ecole/2_Phd/thesis/Pictures/RawSVGFiles/RDSchemeI.svg"
         inkscape:export-xdpi="720"
         inkscape:export-ydpi="720" />
      <circle
         style="opacity:0.981746;fill:#000000;fill-opacity:1;stroke:none;stroke-width:0.79125;stroke-linejoin:round;stroke-opacity:0.491087"
         id="path2370-6-2"
         cx="188.89169"
         cy="118.62738"
         r="1.5"
         inkscape:export-filename="/home/ikoo/Documents/8_Ecole/2_Phd/thesis/Pictures/RawSVGFiles/RDSchemeI.svg"
         inkscape:export-xdpi="720"
         inkscape:export-ydpi="720" />
      <circle
         style="opacity:1;fill:#000000;fill-opacity:1;stroke:none;stroke-width:0.79125;stroke-linejoin:round;stroke-opacity:0.491087"
         id="path2370-6-0"
         cx="189.09433"
         cy="91.644325"
         r="1.5"
         inkscape:export-filename="/home/ikoo/Documents/8_Ecole/2_Phd/thesis/Pictures/RawSVGFiles/RDSchemeI.svg"
         inkscape:export-xdpi="720"
         inkscape:export-ydpi="720" />
      <circle
         style="opacity:1;fill:#000000;fill-opacity:1;stroke:none;stroke-width:0.79125;stroke-linejoin:round;stroke-opacity:0.491087"
         id="path2370-6-23"
         cx="145.66173"
         cy="111.56212"
         r="1.5"
         inkscape:export-filename="/home/ikoo/Documents/8_Ecole/2_Phd/thesis/Pictures/RawSVGFiles/RDSchemeI.svg"
         inkscape:export-xdpi="720"
         inkscape:export-ydpi="720" />
      <circle
         style="opacity:1;fill:#000000;stroke:none;stroke-width:0.79125;stroke-linejoin:round;stroke-opacity:0.491087;fill-opacity:1"
         id="path2370-6-75"
         cx="165.59856"
         cy="73.379745"
         r="1.5"
         inkscape:export-filename="/home/ikoo/Documents/8_Ecole/2_Phd/thesis/Pictures/RawSVGFiles/RDSchemeI.svg"
         inkscape:export-xdpi="720"
         inkscape:export-ydpi="720" />
      <circle
         style="opacity:1;fill:#000000;fill-opacity:1;stroke:none;stroke-width:0.79125;stroke-linejoin:round;stroke-opacity:0.491087"
         id="path2370-6-92"
         cx="147.64996"
         cy="88.812386"
         r="1.5"
         inkscape:export-filename="/home/ikoo/Documents/8_Ecole/2_Phd/thesis/Pictures/RawSVGFiles/RDSchemeI.svg"
         inkscape:export-xdpi="720"
         inkscape:export-ydpi="720" />
      <circle
         style="opacity:1;fill:#000000;fill-opacity:1;stroke:none;stroke-width:0.79125;stroke-linejoin:round;stroke-opacity:0.491087"
         id="path2370-6-28"
         cx="144.08054"
         cy="72.055237"
         r="1.5"
         inkscape:export-filename="/home/ikoo/Documents/8_Ecole/2_Phd/thesis/Pictures/RawSVGFiles/RDSchemeI.svg"
         inkscape:export-xdpi="720"
         inkscape:export-ydpi="720" />
      <circle
         style="opacity:1;fill:#000000;stroke:none;stroke-width:0.79125;stroke-linejoin:round;stroke-opacity:0.491087;fill-opacity:1"
         id="path2370-6-97"
         cx="124.12783"
         cy="97.510193"
         r="1.5"
         inkscape:export-filename="/home/ikoo/Documents/8_Ecole/2_Phd/thesis/Pictures/RawSVGFiles/RDSchemeI.svg"
         inkscape:export-xdpi="720"
         inkscape:export-ydpi="720" />
      <circle
         style="fill:#000000;fill-opacity:1;stroke:none;stroke-width:0.79125;stroke-linejoin:round;stroke-opacity:0.491087"
         id="path2370-6-97-6"
         cx="127.78365"
         cy="76.135963"
         r="1.5"
         inkscape:export-filename="/home/ikoo/Documents/8_Ecole/2_Phd/thesis/Pictures/RawSVGFiles/RDSchemeI.svg"
         inkscape:export-xdpi="720"
         inkscape:export-ydpi="720" />
      <circle
         style="fill:#000000;fill-opacity:1;stroke:none;stroke-width:0.79125;stroke-linejoin:round;stroke-opacity:0.491087"
         id="path2370-6-97-5"
         cx="170.73724"
         cy="115.4333"
         r="1.5"
         inkscape:export-filename="/home/ikoo/Documents/8_Ecole/2_Phd/thesis/Pictures/RawSVGFiles/RDSchemeI.svg"
         inkscape:export-xdpi="720"
         inkscape:export-ydpi="720" />
      <text
         xml:space="preserve"
         transform="matrix(0.26458333,0,0,0.26458333,4.1709244,-1.9303895)"
         id="text14954"
         style="font-style:normal;font-weight:normal;font-size:14.6667px;line-height:1.25;font-family:sans-serif;white-space:pre;shape-inside:url(#rect14956);fill:#000000;fill-opacity:1;stroke:none"
         inkscape:export-filename="/home/ikoo/Documents/8_Ecole/2_Phd/thesis/Pictures/RawSVGFiles/RDSchemeI.svg"
         inkscape:export-xdpi="720"
         inkscape:export-ydpi="720"><tspan
           x="626.80859"
           y="426.27542"
           id="tspan16407">\Phi</tspan></text>
      <path
         style="fill:none;stroke:#000000;stroke-width:0.264583px;stroke-linecap:butt;stroke-linejoin:miter;stroke-opacity:1"
         d="m 168.70195,112.79397 c -7.25063,1.3492 -16.18099,6.52873 -19.88863,12.62692"
         id="path23071"
         sodipodi:nodetypes="cc"
         inkscape:export-filename="/home/ikoo/Documents/8_Ecole/2_Phd/thesis/Pictures/RawSVGFiles/RDSchemeI.svg"
         inkscape:export-xdpi="720"
         inkscape:export-ydpi="720" />
      <path
         style="fill:none;stroke:#000000;stroke-width:0.264583px;stroke-linecap:butt;stroke-linejoin:miter;stroke-opacity:1"
         d="m 175.04815,112.07309 c 1.60381,5.55719 -0.63908,15.87749 -2.97494,19.09053"
         id="path23073"
         sodipodi:nodetypes="cc"
         inkscape:export-filename="/home/ikoo/Documents/8_Ecole/2_Phd/thesis/Pictures/RawSVGFiles/RDSchemeI.svg"
         inkscape:export-xdpi="720"
         inkscape:export-ydpi="720" />
      <path
         style="fill:none;stroke:#000000;stroke-width:0.264583px;stroke-linecap:butt;stroke-linejoin:miter;stroke-opacity:1"
         d="m 177.07094,112.15893 c 1.81939,2.74287 2.42364,4.79339 9.01489,5.70977"
         id="path23075"
         sodipodi:nodetypes="cc"
         inkscape:export-filename="/home/ikoo/Documents/8_Ecole/2_Phd/thesis/Pictures/RawSVGFiles/RDSchemeI.svg"
         inkscape:export-xdpi="720"
         inkscape:export-ydpi="720" />
      <path
         style="fill:none;stroke:#000000;stroke-width:0.264583px;stroke-linecap:butt;stroke-linejoin:miter;stroke-opacity:1"
         d="m 178.20239,109.59237 c 6.08627,-5.0857 14.50755,-4.67026 20.95216,-4.61427"
         id="path23077"
         sodipodi:nodetypes="cc"
         inkscape:export-filename="/home/ikoo/Documents/8_Ecole/2_Phd/thesis/Pictures/RawSVGFiles/RDSchemeI.svg"
         inkscape:export-xdpi="720"
         inkscape:export-ydpi="720" />
      <path
         style="fill:none;stroke:#000000;stroke-width:0.264583px;stroke-linecap:butt;stroke-linejoin:miter;stroke-opacity:1"
         d="m 176.75584,106.38268 c 0.83159,-5.85667 5.87168,-10.893455 9.78484,-12.825128"
         id="path23079"
         sodipodi:nodetypes="cc"
         inkscape:export-filename="/home/ikoo/Documents/8_Ecole/2_Phd/thesis/Pictures/RawSVGFiles/RDSchemeI.svg"
         inkscape:export-xdpi="720"
         inkscape:export-ydpi="720" />
      <path
         style="fill:none;stroke:#000000;stroke-width:0.264583px;stroke-linecap:butt;stroke-linejoin:miter;stroke-opacity:1"
         d="m 174.55829,105.85907 c 2.3287,-8.318239 1.60677,-16.297385 0.32029,-23.664959"
         id="path23081"
         sodipodi:nodetypes="cc"
         inkscape:export-filename="/home/ikoo/Documents/8_Ecole/2_Phd/thesis/Pictures/RawSVGFiles/RDSchemeI.svg"
         inkscape:export-xdpi="720"
         inkscape:export-ydpi="720" />
      <path
         style="fill:none;stroke:#000000;stroke-width:0.264583px;stroke-linecap:butt;stroke-linejoin:miter;stroke-opacity:1"
         d="m 171.92625,107.08118 c 0,0 -0.8033,-2.19846 -2.4663,-3.56491"
         id="path23093"
         sodipodi:nodetypes="cc"
         inkscape:export-filename="/home/ikoo/Documents/8_Ecole/2_Phd/thesis/Pictures/RawSVGFiles/RDSchemeI.svg"
         inkscape:export-xdpi="720"
         inkscape:export-ydpi="720" />
      <path
         style="fill:none;stroke:#000000;stroke-width:0.264583px;stroke-linecap:butt;stroke-linejoin:miter;stroke-opacity:1"
         d="m 168.66437,108.96626 c -3.98741,-1.8158 -8.907,-0.9541 -18.83585,2.3845"
         id="path23095"
         sodipodi:nodetypes="cc"
         inkscape:export-filename="/home/ikoo/Documents/8_Ecole/2_Phd/thesis/Pictures/RawSVGFiles/RDSchemeI.svg"
         inkscape:export-xdpi="720"
         inkscape:export-ydpi="720" />
      <path
         style="fill:none;stroke:#000000;stroke-width:0.264583px;stroke-linecap:butt;stroke-linejoin:miter;stroke-opacity:1"
         d="m 168.37742,111.18345 c -7.52072,-0.85081 -25.036,4.89099 -39.66506,10.78843"
         id="path23099"
         sodipodi:nodetypes="cc"
         inkscape:export-filename="/home/ikoo/Documents/8_Ecole/2_Phd/thesis/Pictures/RawSVGFiles/RDSchemeI.svg"
         inkscape:export-xdpi="720"
         inkscape:export-ydpi="720" />
      <text
         xml:space="preserve"
         style="font-size:3.175px;line-height:1.25;font-family:sans-serif;stroke-width:0.264583"
         x="184.81485"
         y="104.74937"
         id="text32790"
         inkscape:export-filename="/home/ikoo/Documents/8_Ecole/2_Phd/thesis/Pictures/RawSVGFiles/RDSchemeI.svg"
         inkscape:export-xdpi="720"
         inkscape:export-ydpi="720"><tspan
           sodipodi:role="line"
           id="tspan32788"
           style="stroke-width:0.264583"
           x="184.81485"
           y="104.74937">\beta</tspan></text>
      <text
         xml:space="preserve"
         style="font-size:3.175px;line-height:1.25;font-family:sans-serif;stroke-width:0.264583"
         x="179.70049"
         y="96.88533"
         id="text32790-3"
         inkscape:export-filename="/home/ikoo/Documents/8_Ecole/2_Phd/thesis/Pictures/RawSVGFiles/RDSchemeI.svg"
         inkscape:export-xdpi="720"
         inkscape:export-ydpi="720"><tspan
           sodipodi:role="line"
           id="tspan32788-6"
           style="stroke-width:0.264583"
           x="179.70049"
           y="96.88533">\beta</tspan></text>
      <text
         xml:space="preserve"
         style="font-size:3.175px;line-height:1.25;font-family:sans-serif;stroke-width:0.264583"
         x="171.64607"
         y="91.616989"
         id="text32790-1"
         inkscape:export-filename="/home/ikoo/Documents/8_Ecole/2_Phd/thesis/Pictures/RawSVGFiles/RDSchemeI.svg"
         inkscape:export-xdpi="720"
         inkscape:export-ydpi="720"><tspan
           sodipodi:role="line"
           id="tspan32788-2"
           style="stroke-width:0.264583"
           x="171.64607"
           y="91.616989">\beta</tspan></text>
      <text
         xml:space="preserve"
         style="font-size:3.175px;line-height:1.25;font-family:sans-serif;stroke-width:0.264583"
         x="177.6368"
         y="118.41462"
         id="text32790-9"
         inkscape:export-filename="/home/ikoo/Documents/8_Ecole/2_Phd/thesis/Pictures/RawSVGFiles/RDSchemeI.svg"
         inkscape:export-xdpi="720"
         inkscape:export-ydpi="720"><tspan
           sodipodi:role="line"
           id="tspan32788-3"
           style="stroke-width:0.264583"
           x="177.6368"
           y="118.41462">\beta</tspan></text>
      <text
         xml:space="preserve"
         style="font-size:3.175px;line-height:1.25;font-family:sans-serif;stroke-width:0.264583"
         x="170.14404"
         y="124.87601"
         id="text32790-19"
         inkscape:export-filename="/home/ikoo/Documents/8_Ecole/2_Phd/thesis/Pictures/RawSVGFiles/RDSchemeI.svg"
         inkscape:export-xdpi="720"
         inkscape:export-ydpi="720"><tspan
           sodipodi:role="line"
           id="tspan32788-4"
           style="stroke-width:0.264583"
           x="170.14404"
           y="124.87601">\beta</tspan></text>
      <text
         xml:space="preserve"
         style="font-size:3.175px;line-height:1.25;font-family:sans-serif;stroke-width:0.264583"
         x="149.39728"
         y="121.90714"
         id="text32790-7"
         inkscape:export-filename="/home/ikoo/Documents/8_Ecole/2_Phd/thesis/Pictures/RawSVGFiles/RDSchemeI.svg"
         inkscape:export-xdpi="720"
         inkscape:export-ydpi="720"><tspan
           sodipodi:role="line"
           id="tspan32788-8"
           style="stroke-width:0.264583"
           x="149.39728"
           y="121.90714">\beta</tspan></text>
      <text
         xml:space="preserve"
         style="font-size:3.175px;line-height:1.25;font-family:sans-serif;stroke-width:0.264583"
         x="142.00111"
         y="117.55407"
         id="text32790-4"
         inkscape:export-filename="/home/ikoo/Documents/8_Ecole/2_Phd/thesis/Pictures/RawSVGFiles/RDSchemeI.svg"
         inkscape:export-xdpi="720"
         inkscape:export-ydpi="720"><tspan
           sodipodi:role="line"
           id="tspan32788-5"
           style="stroke-width:0.264583"
           x="142.00111"
           y="117.55407">\beta</tspan></text>
      <text
         xml:space="preserve"
         style="font-size:3.175px;line-height:1.25;font-family:sans-serif;stroke-width:0.264583"
         x="158.1588"
         y="110.0843"
         id="text32790-0"
         inkscape:export-filename="/home/ikoo/Documents/8_Ecole/2_Phd/thesis/Pictures/RawSVGFiles/RDSchemeI.svg"
         inkscape:export-xdpi="720"
         inkscape:export-ydpi="720"><tspan
           sodipodi:role="line"
           id="tspan32788-36"
           style="stroke-width:0.264583"
           x="158.1588"
           y="110.0843">\beta</tspan></text>
      <text
         xml:space="preserve"
         style="font-size:3.175px;line-height:1.25;font-family:sans-serif;stroke-width:0.264583"
         x="167.03516"
         y="106.73209"
         id="text32790-10"
         inkscape:export-filename="/home/ikoo/Documents/8_Ecole/2_Phd/thesis/Pictures/RawSVGFiles/RDSchemeI.svg"
         inkscape:export-xdpi="720"
         inkscape:export-ydpi="720"><tspan
           sodipodi:role="line"
           id="tspan32788-63"
           style="stroke-width:0.264583"
           x="167.03516"
           y="106.73209">\beta</tspan></text>
      <circle
         style="fill:#000000;fill-opacity:1;stroke:none;stroke-width:0.79125;stroke-linejoin:round;stroke-opacity:0.491087"
         id="path2370-6-23-0-85"
         cx="170.80852"
         cy="90.446342"
         r="1.5"
         inkscape:export-filename="/home/ikoo/Documents/8_Ecole/2_Phd/thesis/Pictures/RawSVGFiles/RDSchemeI.svg"
         inkscape:export-xdpi="720"
         inkscape:export-ydpi="720" />
      <path
         style="fill:none;stroke:#000000;stroke-width:0.264583px;stroke-linecap:butt;stroke-linejoin:miter;stroke-opacity:1"
         d="m 173.19446,111.95462 c -1.10543,0.10542 -1.4579,0.67131 -1.92369,1.45926"
         id="path32908"
         inkscape:export-filename="/home/ikoo/Documents/8_Ecole/2_Phd/thesis/Pictures/RawSVGFiles/RDSchemeI.svg"
         inkscape:export-xdpi="720"
         inkscape:export-ydpi="720" />
      <circle
         style="fill:#000000;fill-opacity:1;stroke:none;stroke-width:0.79125;stroke-linejoin:round;stroke-opacity:0.491087"
         id="path2370-6-97-4"
         cx="156.85056"
         cy="69.323883"
         r="1.5"
         inkscape:export-filename="/home/ikoo/Documents/8_Ecole/2_Phd/thesis/Pictures/RawSVGFiles/RDSchemeI.svg"
         inkscape:export-xdpi="720"
         inkscape:export-ydpi="720" />
    </g>
    <g
       id="g16140">
      <path
         style="fill:#067a42;fill-opacity:0.17801909;stroke:#086006;stroke-width:0.465;stroke-linecap:butt;stroke-linejoin:miter;stroke-opacity:1;stroke-miterlimit:4;stroke-dasharray:none"
         d="m 42.874517,268.55843 6.39011,-6.70909 5.94009,-3.43755 7.77282,5.14026 6.2157,4.86889 -3.263,4.08072 -6.23437,6.02431 -7.06914,-5.92699 -9.75221,-4.04054 6.39011,-6.70909"
         id="path7471-3" />
      <path
         style="fill:#067a42;fill-opacity:0.47986904;stroke:#086006;stroke-width:0.465;stroke-linecap:butt;stroke-linejoin:miter;stroke-opacity:1;stroke-miterlimit:4;stroke-dasharray:none"
         d="m 66.139197,253.40034 -5.90931,2.06918 -5.02515,2.94227 7.77279,5.14027 6.21573,4.86888 5.912327,-4.52095 2.827153,-4.69359 -6.05372,-3.21575 z"
         id="path22905-9"
         sodipodi:nodetypes="ccccccccc" />
      <path
         style="fill:#067a42;fill-opacity:0.4607566;stroke:#086006;stroke-width:0.465;stroke-linecap:butt;stroke-linejoin:miter;stroke-opacity:1;stroke-miterlimit:4;stroke-dasharray:none"
         d="m 59.695887,278.52597 6.23438,-6.0243 3.26299,-4.08072 12.00003,4.11671 1.61441,14.11039 -17.29166,-1.01191 z"
         id="path7436-1"
         sodipodi:nodetypes="ccccccc" />
      <path
         style="fill:#067a42;fill-opacity:0.2019095;stroke:#086006;stroke-width:0.465;stroke-linecap:butt;stroke-linejoin:miter;stroke-opacity:1;stroke-miterlimit:4;stroke-dasharray:none"
         d="m 69.193237,268.42095 5.892463,-4.55532 2.847017,-4.65923 4.96975,4.57299 6.30468,9.4492 -6.98889,7.02456 -1.02497,-7.71549 z"
         id="path28263-0"
         sodipodi:nodetypes="cccccccc" />
      <path
         style="fill:#067a42;fill-opacity:0.26298583;stroke:#086006;stroke-width:0.465;stroke-linecap:butt;stroke-linejoin:miter;stroke-miterlimit:4;stroke-dasharray:none;stroke-opacity:1"
         d="m 89.216177,273.19066 3.13623,-9.28687 4.31597,-10.18013 -16.31511,-10.81702 4.86307,8.57633 -4.120896,1.90114 -3.162724,5.82229 4.96975,4.57299 z"
         id="path13650-4"
         sodipodi:nodetypes="ccccccccc" />
      <path
         style="fill:#067a42;fill-opacity:0.50625229;stroke:#086006;stroke-width:0.465;stroke-linecap:butt;stroke-linejoin:miter;stroke-opacity:1;stroke-miterlimit:4;stroke-dasharray:none"
         d="m 99.750067,285.7804 6.963513,-8.37009 2.87338,-12.06827 -2.55476,-11.36574 -10.381873,-0.17678 -4.31596,10.18013 -3.13624,9.28687 3.78519,6.68517 6.76675,5.82871"
         id="path13483-3" />
      <path
         style="fill:#067a42;fill-opacity:0.47405225;stroke:#086006;stroke-width:0.465;stroke-linecap:butt;stroke-linejoin:miter;stroke-opacity:1;stroke-miterlimit:4;stroke-dasharray:none"
         d="m 90.193457,305.68821 -9.25562,-1.53474 11.660747,-8.65042 7.169513,-9.79851 5.908093,5.33562 10.3381,8.09905 -7.14626,6.41316 -6.73788,6.68443 -11.936693,-6.54859"
         id="path11631-8"
         sodipodi:nodetypes="ccccccccc" />
      <path
         style="fill:#067a42;fill-opacity:0.21956755;stroke:#086006;stroke-width:0.465;stroke-linecap:butt;stroke-linejoin:miter;stroke-opacity:1;stroke-miterlimit:4;stroke-dasharray:none"
         d="m 41.248917,288.70378 9.50441,-4.28245 8.94254,-5.89537 5.82018,7.11018 17.19065,0.97825 -12.396469,5.21725 -13.087991,7.48226 -13.29154,-3.24941 z"
         id="path5712-9"
         sodipodi:nodetypes="ccccccccc" />
      <path
         style="fill:#067a42;fill-opacity:0.32946336;stroke:#086006;stroke-width:0.465;stroke-linecap:butt;stroke-linejoin:miter;stroke-opacity:1;stroke-miterlimit:4;stroke-dasharray:none"
         d="m 57.222237,299.3139 12.89409,1.65086 10.82152,3.18871 11.674462,-8.66962 7.155798,-9.77931 -7.02591,-6.05195 -3.52602,-6.46192 -7.166864,7.16421 0.832554,6.2327 -12.158525,4.99461 -13.114051,7.54936"
         id="path8701-3"
         sodipodi:nodetypes="ccccccccccc" />
      <path
         style="fill:#067a42;fill-opacity:0.17801909;stroke:#086006;stroke-width:0.465;stroke-linecap:butt;stroke-linejoin:miter;stroke-opacity:1;stroke-miterlimit:4;stroke-dasharray:none"
         d="m 99.768107,285.70454 6.945473,-8.29423 2.89142,-12.14413 13.26684,2.56063 5.70537,13.5009 -4.79541,16.98687 -7.76751,0.82463 -10.3381,-8.09905 z"
         id="path12920-6" />
      <path
         style="fill:#067a42;fill-opacity:0.30578071;stroke:#086006;stroke-width:0.465;stroke-linecap:butt;stroke-linejoin:miter;stroke-opacity:1;stroke-miterlimit:4;stroke-dasharray:none"
         d="m 41.248917,288.70378 v 0 l -8.45112,0.5248 -10.39182,2.63059 -8.43736,12.73492 5.20532,15.59798 22.58291,-5.77174 3.84215,-9.12226 11.62323,-5.98417 -13.29153,-3.24941 -2.68179,-7.36071"
         id="path6642-8" />
      <path
         style="fill:#067a42;fill-opacity:0.17220226;stroke:#086006;stroke-width:0.465;stroke-linecap:butt;stroke-linejoin:miter;stroke-opacity:1;stroke-miterlimit:4;stroke-dasharray:none"
         d="m 42.874537,268.55843 -6.38606,-2.62038 -18.58247,0.14706 -2.27158,13.70213 6.77156,12.07193 10.39184,-2.63059 8.45109,-0.5248 -0.48702,-10.66877 2.11264,-9.47658 -6.38606,-2.62038"
         id="path6409-0" />
      <path
         style="fill:#067a42;fill-opacity:0.48028445;stroke:#086006;stroke-width:0.465;stroke-linecap:butt;stroke-linejoin:miter;stroke-opacity:1;stroke-miterlimit:4;stroke-dasharray:none"
         d="m 36.288617,265.85603 6.5859,2.70239 6.39011,-6.70908 5.94009,-3.43755 -8.02265,-5.69272 -3.70896,-9.55268 -13.08224,-0.0414 -8.5866,11.9266 z"
         id="path6374-2"
         inkscape:transform-center-x="-9.248048"
         inkscape:transform-center-y="-0.094853821" />
      <g
         id="g2146-93-1"
         transform="translate(5.6823972,202.96204)">
        <rect
           style="opacity:0.463371;fill:none;stroke:#2e0000;stroke-width:1.41111;stroke-linejoin:round;stroke-opacity:0.491087"
           id="rect1854-2-0"
           width="117.71735"
           height="99.851433"
           x="6.2272587"
           y="27.397366" />
        <path
           style="fill:none;stroke:#000000;stroke-width:0.529519;stroke-linecap:butt;stroke-linejoin:miter;stroke-miterlimit:4;stroke-dasharray:none;stroke-opacity:1"
           d="m 33.619229,50.805561 -7.49358,47.289443 47.459339,-21.74415 z"
           id="path1211-6-5" />
        <path
           style="fill:none;stroke:#000000;stroke-width:0.529519;stroke-linecap:butt;stroke-linejoin:miter;stroke-miterlimit:4;stroke-dasharray:none;stroke-opacity:1"
           d="m 33.619229,50.805561 28.975179,-6.784831 17.62127,8.869344 -6.63069,23.46078 -39.965759,-25.545293"
           id="path1213-0-1"
           sodipodi:nodetypes="ccccc" />
        <path
           style="fill:none;stroke:#000000;stroke-width:0.529519;stroke-linecap:butt;stroke-linejoin:miter;stroke-miterlimit:4;stroke-dasharray:none;stroke-opacity:1"
           d="M 26.125649,98.094994 77.899478,109.25318 109.00918,79.784134 80.215678,52.890071 73.584988,76.350854 26.125649,98.094994"
           id="path1343-6-1" />
      </g>
      <circle
         style="opacity:0.981746;fill:#000000;fill-opacity:1;stroke:none;stroke-width:0.529519;stroke-linejoin:round;stroke-miterlimit:4;stroke-dasharray:none;stroke-opacity:0.491087"
         id="path2370-7-7-8"
         cx="98.104134"
         cy="297.92935"
         r="1.5" />
      <circle
         style="opacity:0.981746;fill:#000000;fill-opacity:1;stroke:none;stroke-width:0.529519;stroke-linejoin:round;stroke-miterlimit:4;stroke-dasharray:none;stroke-opacity:0.491087"
         id="path2370-6-17-5"
         cx="113.89099"
         cy="282.91122"
         r="1.5" />
      <circle
         style="opacity:0.981746;fill:#000000;fill-opacity:1;stroke:none;stroke-width:0.529519;stroke-linejoin:round;stroke-miterlimit:4;stroke-dasharray:none;stroke-opacity:0.491087"
         id="path2370-6-1-2-0"
         cx="85.680695"
         cy="256.09875"
         r="1.5" />
      <circle
         style="opacity:0.981746;fill:#000000;fill-opacity:1;stroke:none;stroke-width:0.529519;stroke-linejoin:round;stroke-miterlimit:4;stroke-dasharray:none;stroke-opacity:0.491087"
         id="path2370-6-8-7-6"
         cx="78.876854"
         cy="279.29037"
         r="1.5" />
      <circle
         style="fill:#000000;fill-opacity:1;stroke:none;stroke-width:0.529519;stroke-linejoin:round;stroke-miterlimit:4;stroke-dasharray:none;stroke-opacity:0.491087"
         id="path2370-6-7-2-4"
         cx="31.964441"
         cy="301.03766"
         r="1.5" />
      <circle
         style="opacity:0.981746;fill:#000000;fill-opacity:1;stroke:none;stroke-width:0.529519;stroke-linejoin:round;stroke-miterlimit:4;stroke-dasharray:none;stroke-opacity:0.491087"
         id="path2370-6-9-2-6"
         cx="58.981316"
         cy="306.89526"
         r="1.5" />
      <circle
         style="fill:#000000;fill-opacity:1;stroke:none;stroke-width:0.529519;stroke-linejoin:round;stroke-miterlimit:4;stroke-dasharray:none;stroke-opacity:0.491087"
         id="path2370-6-0-1-2"
         cx="99.44574"
         cy="268.345"
         r="1.5" />
      <circle
         style="fill:#000000;fill-opacity:1;stroke:none;stroke-width:0.529519;stroke-linejoin:round;stroke-miterlimit:4;stroke-dasharray:none;stroke-opacity:0.491087"
         id="path2370-6-23-0-5"
         cx="52.945801"
         cy="291.24652"
         r="1.5" />
      <circle
         style="fill:#000000;fill-opacity:1;stroke:none;stroke-width:0.529519;stroke-linejoin:round;stroke-miterlimit:4;stroke-dasharray:none;stroke-opacity:0.491087"
         id="path2370-6-28-5-8"
         cx="68.100365"
         cy="247.01663"
         r="1.5" />
      <circle
         style="fill:#000000;fill-opacity:1;stroke:none;stroke-width:0.529519;stroke-linejoin:round;stroke-miterlimit:4;stroke-dasharray:none;stroke-opacity:0.491087"
         id="path2370-6-28-5-59-6"
         cx="48.267086"
         cy="276.32391"
         r="1.5" />
      <circle
         style="fill:#000000;fill-opacity:1;stroke:none;stroke-width:0.529519;stroke-linejoin:round;stroke-miterlimit:4;stroke-dasharray:none;stroke-opacity:0.491087"
         id="path2370-6-97-9-2"
         cx="39.501827"
         cy="253.8992"
         r="1.5" />
      <text
         xml:space="preserve"
         style="font-size:3.175px;line-height:1.25;font-family:sans-serif;stroke-width:0.529519;stroke-miterlimit:4;stroke-dasharray:none"
         x="81.339745"
         y="294.87762"
         id="text32790-10-9-29"><tspan
           sodipodi:role="line"
           id="tspan32788-63-0-9"
           style="stroke-width:0.529519;stroke-miterlimit:4;stroke-dasharray:none"
           x="81.339745"
           y="294.87762">\beta</tspan></text>
      <circle
         style="fill:#000000;fill-opacity:1;stroke:none;stroke-width:0.529519;stroke-linejoin:round;stroke-miterlimit:4;stroke-dasharray:none;stroke-opacity:0.491087"
         id="path2370-6-28-5-1-1"
         cx="59.517601"
         cy="266.51675"
         r="1.5" />
      <path
         style="fill:#067a42;fill-opacity:0.50251287;stroke:#086006;stroke-width:0.465;stroke-linecap:butt;stroke-linejoin:miter;stroke-opacity:1;stroke-miterlimit:4;stroke-dasharray:none"
         d="m 45.599007,305.29808 11.62323,-5.98418 12.89409,1.65086 10.82152,3.18871 -10.80069,6.35776 -3.75568,13.10589 -9.42195,-8.57115 -15.20267,-0.62564"
         id="path8204-1" />
      <circle
         style="fill:#000000;fill-opacity:1;stroke:none;stroke-width:0.529519;stroke-linejoin:round;stroke-miterlimit:4;stroke-dasharray:none;stroke-opacity:0.491087"
         id="path2370-6-28-5-59-76-0"
         cx="86.493294"
         cy="291.23215"
         r="1.5" />
      <path
         style="fill:#067a42;fill-opacity:0.178019;stroke:#086006;stroke-width:0.465;stroke-linecap:butt;stroke-linejoin:miter;stroke-miterlimit:4;stroke-dasharray:none;stroke-opacity:1"
         d="m 77.932717,259.2064 -6.05371,-3.21575 -5.73982,-2.59032 5.70764,-2.76572 0.17719,-8.43748 8.32925,0.7095 4.86307,8.57634 -4.071945,1.89325 z"
         id="path14411-0"
         sodipodi:nodetypes="ccccccccc" />
      <circle
         style="opacity:0.981746;fill:#000000;fill-opacity:1;stroke:none;stroke-width:0.529519;stroke-linejoin:round;stroke-miterlimit:4;stroke-dasharray:none;stroke-opacity:0.491087"
         id="path2370-7-36-3"
         cx="77.341362"
         cy="251.36157"
         r="1.5" />
      <circle
         style="opacity:0.981746;fill:#000000;fill-opacity:1;stroke:none;stroke-width:0.529519;stroke-linejoin:round;stroke-miterlimit:4;stroke-dasharray:none;stroke-opacity:0.491087"
         id="path2370-7-36-5-9"
         cx="82.264297"
         cy="268.32632"
         r="1.5" />
      <path
         style="fill:#067a42;fill-opacity:0.3521072;stroke:#086006;stroke-width:0.465;stroke-linecap:butt;stroke-linejoin:miter;stroke-opacity:1;stroke-miterlimit:4;stroke-dasharray:none"
         d="m 60.528587,249.81287 5.60766,3.72796 5.71354,-3.04672 0.17129,-8.15648 -9.78881,-6.99626 -1.70368,14.4715"
         id="path15475-1" />
      <circle
         style="opacity:0.981746;fill:#000000;fill-opacity:1;stroke:none;stroke-width:0.529519;stroke-linejoin:round;stroke-miterlimit:4;stroke-dasharray:none;stroke-opacity:0.491087"
         id="path2370-7-36-4-6"
         cx="53.645592"
         cy="250.2204"
         r="1.5" />
      <circle
         style="opacity:0.981746;fill:#000000;fill-opacity:1;stroke:none;stroke-width:0.529519;stroke-linejoin:round;stroke-miterlimit:4;stroke-dasharray:none;stroke-opacity:0.491087"
         id="path2370-7-36-8-9"
         cx="35.296051"
         cy="278.74228"
         r="1.5" />
      <circle
         style="opacity:0.981746;fill:#000000;fill-opacity:1;stroke:none;stroke-width:0.529519;stroke-linejoin:round;stroke-miterlimit:4;stroke-dasharray:none;stroke-opacity:0.491087"
         id="path2370-7-36-1-3"
         cx="68.192368"
         cy="259.59116"
         r="1.5" />
      <circle
         style="opacity:0.981746;fill:#000000;fill-opacity:1;stroke:none;stroke-width:0.529519;stroke-linejoin:round;stroke-miterlimit:4;stroke-dasharray:none;stroke-opacity:0.491087"
         id="path2370-7-36-2-3"
         cx="83.95742"
         cy="311.86731"
         r="1.5" />
      <path
         style="fill:#067a42;fill-opacity:0.46034122;stroke:#086006;stroke-width:0.465;stroke-linecap:butt;stroke-linejoin:miter;stroke-opacity:1;stroke-miterlimit:4;stroke-dasharray:none"
         d="m 42.874527,268.55843 -2.11264,9.47658 0.48701,10.66877 9.50442,-4.28245 8.94257,-5.89536 -7.06916,-5.92699 z"
         id="path27832-8" />
      <path
         style="fill:none;stroke:#000000;stroke-width:0.264583px;stroke-linecap:butt;stroke-linejoin:miter;stroke-opacity:1"
         d="m 48.167326,276.29003 4.756141,15.09269"
         id="path2566"
         sodipodi:nodetypes="cc" />
      <path
         style="fill:none;stroke:#000000;stroke-width:0.264583px;stroke-linecap:butt;stroke-linejoin:miter;stroke-opacity:1"
         d="m 35.288038,279.096 12.879288,-2.80597 11.20455,-9.69394"
         id="path2568"
         sodipodi:nodetypes="ccc" />
      <path
         style="fill:none;stroke:#000000;stroke-width:0.264583px;stroke-linecap:butt;stroke-linejoin:miter;stroke-opacity:1"
         d="m 59.157293,266.45235 6.432494,-4.74597 2.574417,-1.92729 -15.69226,-9.32966"
         id="path3724"
         sodipodi:nodetypes="cccc" />
      <path
         style="fill:none;stroke:#086006;stroke-width:0.465;stroke-linecap:butt;stroke-linejoin:miter;stroke-opacity:1;fill-opacity:0.17801909;stroke-miterlimit:4;stroke-dasharray:none"
         d="m 82.153904,268.76543 -13.657413,-9.27842 8.716682,-8.1421"
         id="path4052"
         sodipodi:nodetypes="ccc" />
      <path
         style="fill:none;stroke:#000000;stroke-width:0.264583px;stroke-linecap:butt;stroke-linejoin:miter;stroke-opacity:1"
         d="M 86.5627,290.92893 99.028993,267.72876"
         id="path4693"
         sodipodi:nodetypes="cc" />
      <path
         style="fill:none;stroke:#000000;stroke-width:0.264583px;stroke-linecap:butt;stroke-linejoin:miter;stroke-opacity:1"
         d="m 86.788473,291.07313 10.701645,6.84537"
         id="path4808"
         sodipodi:nodetypes="cc" />
      <path
         style="fill:none;stroke:#000000;stroke-width:0.264583px;stroke-linecap:butt;stroke-linejoin:miter;stroke-opacity:1"
         d="m 53.102211,291.42146 33.31453,0.35711"
         id="path5352"
         sodipodi:nodetypes="cc" />
      <path
         style="fill:none;stroke:#000000;stroke-width:0.264583px;stroke-linecap:butt;stroke-linejoin:miter;stroke-opacity:1"
         d="M 86.676598,291.50064 59.061016,306.6543"
         id="path5600"
         sodipodi:nodetypes="cc" />
      <path
         style="fill:none;stroke:#000000;stroke-width:0.264583px;stroke-linecap:butt;stroke-linejoin:miter;stroke-opacity:1"
         d="m 82.232455,268.31601 4.554961,22.71554"
         id="path5937"
         sodipodi:nodetypes="cc" />
    </g>
    <g
       id="g16180">
      <path
         style="fill:#0000b4;stroke:#000000;stroke-width:0.264583px;stroke-linecap:butt;stroke-linejoin:miter;stroke-opacity:1;fill-opacity:0.17552607"
         d="m 212.86703,277.25383 11.21595,-10.03231 9.48568,-8.06153 13.2645,8.74259 2.60262,25.98693 -29.09959,-3.02327 -7.46916,-13.61241"
         id="path1071" />
      <path
         style="fill:#0000b4;stroke:#000000;stroke-width:0.264583px;stroke-linecap:butt;stroke-linejoin:miter;stroke-opacity:1;fill-opacity:0.48090762"
         d="m 200.35329,278.09362 12.51374,-0.83979 11.12857,-9.95416 9.57306,-8.13968 -14.98097,-8.10352 -8.38344,-14.39457 -27.21401,5.24688 -1.63082,32.35944 z"
         id="path2221" />
      <path
         style="fill:#002ab4;stroke:#000000;stroke-width:0.264583px;stroke-linecap:butt;stroke-linejoin:miter;stroke-opacity:1;fill-opacity:0.33735761"
         d="m 200.35329,278.09362 12.51374,-0.83979 7.46916,13.61241 29.09959,3.02327 -24.88298,12.40152 -23.8819,17.16664 -24.5455,-10.78441 5.23402,-38.40504"
         id="path2685" />
      <g
         id="g2146-93-1-1"
         transform="translate(169.89814,203.40485)">
        <path
           style="fill:none;stroke:#000000;stroke-width:0.264583px;stroke-linecap:butt;stroke-linejoin:miter;stroke-opacity:1"
           d="m 33.619229,50.805561 -7.49358,47.289443 47.459339,-21.74415 z"
           id="path1211-6-1-8" />
        <path
           style="fill:none;stroke:#000000;stroke-width:0.264583px;stroke-linecap:butt;stroke-linejoin:miter;stroke-opacity:1"
           d="m 33.619229,50.805558 28.975179,-6.784831 17.62127,8.869344 -6.63069,23.46078 -39.965759,-25.545293"
           id="path1213-0-5-5"
           sodipodi:nodetypes="ccccc" />
        <path
           style="fill:none;stroke:#000000;stroke-width:0.264583px;stroke-linecap:butt;stroke-linejoin:miter;stroke-opacity:1"
           d="M 26.125649,98.094994 77.899478,109.25318 109.00918,79.784134 80.215678,52.890071 73.584988,76.350854 26.125649,98.094994"
           id="path1343-6-9-9" />
        <rect
           style="opacity:0.463371;fill:none;stroke:#2e0000;stroke-width:1.41111;stroke-linejoin:round;stroke-opacity:0.491087"
           id="rect1854-2-8-7"
           width="117.71735"
           height="99.851433"
           x="6.2272587"
           y="27.397366" />
      </g>
      <circle
         style="opacity:0.981746;fill:#000000;fill-opacity:1;stroke:none;stroke-width:0.79125;stroke-linejoin:round;stroke-opacity:0.491087"
         id="path2370-7-5"
         cx="248.13773"
         cy="312.61932"
         r="1.5" />
      <circle
         style="opacity:0.981746;fill:#000000;fill-opacity:1;stroke:none;stroke-width:0.79125;stroke-linejoin:round;stroke-opacity:0.491087"
         id="path2370-6-17-6"
         cx="278.68942"
         cy="283.5925"
         r="1.5" />
      <circle
         style="opacity:0.981746;fill:#000000;fill-opacity:1;stroke:none;stroke-width:0.79125;stroke-linejoin:round;stroke-opacity:0.491087"
         id="path2370-6-1-2-2"
         cx="250.47922"
         cy="256.78003"
         r="1.5" />
      <circle
         style="opacity:0.981746;fill:#000000;fill-opacity:1;stroke:none;stroke-width:0.79125;stroke-linejoin:round;stroke-opacity:0.491087"
         id="path2370-6-8-7-9"
         cx="243.65997"
         cy="280.00861"
         r="1.5" />
      <circle
         style="fill:#000000;fill-opacity:1;stroke:none;stroke-width:0.79125;stroke-linejoin:round;stroke-opacity:0.491087"
         id="path2370-6-7-2-1"
         cx="196.76295"
         cy="301.71893"
         r="1.5" />
      <circle
         style="fill:#000000;fill-opacity:1;stroke:none;stroke-width:0.79125;stroke-linejoin:round;stroke-opacity:0.491087"
         id="path2370-6-28-5-9"
         cx="232.8989"
         cy="247.69791"
         r="1.5" />
      <circle
         style="fill:#000000;fill-opacity:1;stroke:none;stroke-width:0.79125;stroke-linejoin:round;stroke-opacity:0.491087"
         id="path2370-6-97-9-36"
         cx="204.30034"
         cy="254.58047"
         r="1.5" />
      <path
         style="fill:none;stroke:#000000;stroke-width:0.264583px;stroke-linecap:butt;stroke-linejoin:miter;stroke-opacity:1"
         d="m 251.40709,286.21601 c 0,0 -0.23752,-4.13873 -5.32883,-4.8379"
         id="path23093-1-2"
         sodipodi:nodetypes="cc" />
      <path
         style="fill:none;stroke:#000000;stroke-width:0.264583px;stroke-linecap:butt;stroke-linejoin:miter;stroke-opacity:1"
         d="m 242.84771,277.05955 c 0,0 -0.58105,-3.84015 -3.47111,-5.53771"
         id="path23093-1-9-61"
         sodipodi:nodetypes="cc" />
      <path
         style="fill:none;stroke:#000000;stroke-width:0.264583px;stroke-linecap:butt;stroke-linejoin:miter;stroke-opacity:1"
         d="m 240.30811,279.7557 c 0,0 -4.30552,-2.36651 -7.75028,1.98303"
         id="path23093-1-9-6-8"
         sodipodi:nodetypes="cc" />
      <path
         style="fill:none;stroke:#000000;stroke-width:0.264583px;stroke-linecap:butt;stroke-linejoin:miter;stroke-opacity:1"
         d="m 229.01289,295.13696 c 0,0 -1.74089,-3.79318 -4.74974,-3.64902"
         id="path23095-1-7"
         sodipodi:nodetypes="cc" />
      <path
         style="fill:none;stroke:#000000;stroke-width:0.269818px;stroke-linecap:butt;stroke-linejoin:miter;stroke-opacity:1"
         d="m 217.27341,280.00025 c 3.67145,1.2584 4.34731,4.83754 4.34731,4.83754"
         id="path23095-1-0-9"
         sodipodi:nodetypes="cc"
         inkscape:transform-center-x="3.7291752"
         inkscape:transform-center-y="0.32093206" />
      <path
         style="fill:none;stroke:#000000;stroke-width:0.269818px;stroke-linecap:butt;stroke-linejoin:miter;stroke-opacity:1"
         d="m 216.06485,272.39285 c 1.53513,-3.56462 5.15543,-3.96516 5.15543,-3.96516"
         id="path23095-1-0-3-2"
         sodipodi:nodetypes="cc"
         inkscape:transform-center-x="-0.0351848"
         inkscape:transform-center-y="3.7427936" />
      <path
         style="fill:none;stroke:#000000;stroke-width:0.269818px;stroke-linecap:butt;stroke-linejoin:miter;stroke-opacity:1"
         d="m 226.02161,266.16819 c 3.21413,-2.17543 6.4796,-0.56184 6.4796,-0.56184"
         id="path23095-1-0-3-8-0"
         sodipodi:nodetypes="cc"
         inkscape:transform-center-x="1.9873602"
         inkscape:transform-center-y="2.8838969" />
      <text
         xml:space="preserve"
         style="font-size:3.175px;line-height:1.25;font-family:sans-serif;stroke-width:0.264583"
         x="246.13828"
         y="295.5589"
         id="text32790-10-9-2"><tspan
           sodipodi:role="line"
           id="tspan32788-63-0-3"
           style="stroke-width:0.264583"
           x="246.13828"
           y="295.5589">\beta</tspan></text>
      <path
         style="fill:none;stroke:#000000;stroke-width:0.269818px;stroke-linecap:butt;stroke-linejoin:miter;stroke-opacity:1"
         d="m 250.15703,268.5611 c 3.798,0.79895 4.90742,4.26827 4.90742,4.26827"
         id="path23095-1-0-3-5-7"
         sodipodi:nodetypes="cc"
         inkscape:transform-center-x="3.6617302"
         inkscape:transform-center-y="0.7755521" />
      <path
         style="fill:none;stroke:#000000;stroke-width:0.269818px;stroke-linecap:butt;stroke-linejoin:miter;stroke-opacity:1"
         d="m 239.15037,267.6397 c 3.14617,-2.27259 6.45941,-0.7595 6.45941,-0.7595"
         id="path23095-1-0-3-6-5"
         sodipodi:nodetypes="cc"
         inkscape:transform-center-x="1.8895552"
         inkscape:transform-center-y="2.9842307" />
      <path
         style="fill:none;stroke:#000000;stroke-width:0.264583px;stroke-linecap:butt;stroke-linejoin:miter;stroke-opacity:1"
         d="m 200.35329,278.09361 12.51374,-0.83979 11.21595,-10.03229"
         id="path1488-9" />
      <path
         style="fill:none;stroke:#000000;stroke-width:0.264583px;stroke-linecap:butt;stroke-linejoin:miter;stroke-opacity:1"
         d="m 212.86703,277.25382 7.46916,13.61243"
         id="path1490-2" />
      <path
         style="fill:none;stroke:#000000;stroke-width:0.264583px;stroke-linecap:butt;stroke-linejoin:miter;stroke-opacity:1"
         d="m 218.58769,251.05647 14.98097,8.10352 8.31725,-7.06126"
         id="path2325-7" />
      <path
         style="fill:none;stroke:#000000;stroke-width:0.264583px;stroke-linecap:butt;stroke-linejoin:miter;stroke-opacity:1"
         d="m 246.83316,267.90258 -13.2645,-8.74259 -9.48568,8.06154"
         id="path2600-3"
         sodipodi:nodetypes="ccc" />
      <path
         style="fill:none;stroke:#000000;stroke-width:0.264583px;stroke-linecap:butt;stroke-linejoin:miter;stroke-opacity:1"
         d="m 246.83316,267.90258 2.60262,25.98694 -29.09959,-3.02327"
         id="path2762-6"
         sodipodi:nodetypes="ccc" />
      <path
         style="fill:none;stroke:#000000;stroke-width:0.264583px;stroke-linecap:butt;stroke-linejoin:miter;stroke-opacity:1"
         d="m 222.49344,307.31741 26.94234,-13.42789"
         id="path2764-1" />
      <path
         style="fill:none;stroke:#000000;stroke-width:0.264583px;stroke-linecap:butt;stroke-linejoin:miter;stroke-opacity:1"
         d="m 249.43578,293.88952 14.49943,4.27246"
         id="path2959-2" />
      <path
         style="fill:none;stroke:#000000;stroke-width:0.264583px;stroke-linecap:butt;stroke-linejoin:miter;stroke-opacity:1"
         d="m 265.09329,269.98043 -15.65751,23.90909"
         id="path2961-9" />
      <path
         style="fill:#000087;stroke:#000000;stroke-width:0.264583px;stroke-linecap:butt;stroke-linejoin:miter;stroke-opacity:1;fill-opacity:0.23431718"
         d="m 241.84537,252.13314 -8.27671,7.02685 13.2645,8.74259 2.60262,25.98693 15.53326,-23.71934 20.68703,-16.77165 -27.04903,-15.82519 -4.68542,9.81186 -12.07625,4.74795"
         id="path7125" />
      <path
         style="fill:#000087;stroke:#000000;stroke-width:0.264583px;stroke-linecap:butt;stroke-linejoin:miter;stroke-opacity:1;fill-opacity:0.43603534"
         d="m 218.58769,251.05647 14.98097,8.10352 8.2767,-7.02685 12.07626,-4.74795 -8.30457,-16.58298 -35.4128,5.85969"
         id="path9173" />
      <path
         style="fill:#0000bb;stroke:#000000;stroke-width:0.264583px;stroke-linecap:butt;stroke-linejoin:miter;stroke-opacity:1;fill-opacity:0.1913145"
         d="m 249.43578,293.88951 v 0 l 15.53326,-23.71934 20.68703,-16.77165 24.40831,23.93209 -16.22163,30.52855 -29.90754,-9.69719 z"
         id="path12767" />
      <path
         style="fill:#002ebb;stroke:#000000;stroke-width:0.264583px;stroke-linecap:butt;stroke-linejoin:miter;stroke-opacity:1;fill-opacity:0.19131452"
         d="m 222.49344,307.3174 26.94234,-13.42789 44.40697,13.96965 -17.23408,22.79449 -28.12496,-7.50734 -47.81281,0.31136"
         id="path14980" />
    </g>
  </g>
</svg>
