﻿\begin{tikzpicture}[y=2pt, x=2pt, yscale=-1, xscale=1.2, inner sep=0pt, outer sep=0pt,>={Latex[length=3mm, width=3mm]}]

    % Transition areas
    \fill[color=Riemann,opacity=0.1] (67.9271,53) rectangle (115.2673,152);
    \fill[color=Riemann,opacity=0.1]  (176.4,53) rectangle (177.5,152);
    \fill[color=Riemann,opacity=0.1]  (145.15,53) rectangle (146.3901,152);

    % Initial solution
    \draw[draw=black,line width=2.5, opacity=0.3, dash pattern=on 10pt off 8pt] (41.5942,62.4395) -- (127.6232,62.4395) -- (127.6232,135.6455) -- (229.1843,135.6455);

    % Developed solution
    \draw[line width=2.5]   (41.5942,62.4395) -- (67.9016,62.4395) .. controls (77.7460,68.2687) and (73.6948,81.9255) .. (115,110.48) -- (115.1793,110.5) -- (145.7458,110.5) -- (145.7458,124.9792) -- (177.0347,124.9792)-- (177.0347,135.6455)-- (229.1843,135.6455);

    % Labels
    \node (A1) at (200,60) [anchor=west] {\footnotesize Rarefaction wave};
    \node (A2) at (200,68) [anchor=west] {\footnotesize Contact wave};
    \node (A3) at (200,76) [anchor=west] {\footnotesize Shock wave};
    \node (A4) at (221,157) [anchor=west] {\large $x$};
    \node (A4) at (37,118) [anchor=west, rotate=90] {\textit{Pressure profile}};

    \draw[->, line width=1.2] (196,60) .. controls (160,50) and (104,72) .. (89,86);
    \draw[->, line width=1.2] (196,68) .. controls (181,65) and (154,94) .. (148,110);
    \draw[->, line width=1.2] (196,76) .. controls (187,76) and (180,108) .. (178,122);

    % Axes
    \draw[draw=black , line width=2.1, <->] (41.6060,42.5380) -- (41.6060,152.0353) -- (229.1726,152.0353);

\end{tikzpicture}
