﻿\begin{tikzpicture}[y=2pt, x=2pt, yscale=-1, xscale=1, inner sep=0pt, outer sep=0pt]

    
    % Dual control volumes
    \fill[style=ControlVolume, opacity=0.3, line width=1.2] (61,120)--(64.5,106.8)--(75,100.5)--(85,102.5)--(96.6,108.7)--(85,119);
    \begin{scope}[shift={(-5.6,-203.3)}]
        \fill[style=ControlVolume, opacity=0.3, line width=1.2]  (42.8745,268.5584) -- (49.2646,261.8493) -- (55.2047,258.4118) -- (62.9775,263.5521) -- (69.1932,268.4209) -- (65.9302,272.5017) -- (59.6959,278.5260) -- (52.6267,272.5990) -- (42.8745,268.5584) -- (49.2646,261.8494);
        \fill[style=ControlVolume, opacity=0.7, line width=1.2]  (69.1932,268.4210) -- (75.0857,263.8656) -- (77.9327,259.2064) -- (82.9025,263.7794) -- (89.2071,273.2286) -- (82.2183,280.2532) -- (81.1933,272.5377) -- cycle;
        \fill[style=ControlVolume, opacity=0.3, line width=1.2]  (89.2162,273.1907) -- (92.3524,263.9038) -- (96.6684,253.7237) -- (80.3533,242.9066) -- (85.2163,251.4830) -- (81.0954,253.3841) -- (77.9327,259.2064) -- (82.9025,263.7794) -- cycle;
        \fill[style=ControlVolume, opacity=0.3, line width=1.2]  (99.7501,285.7804) -- (106.7136,277.4103) -- (109.5870,265.3420) -- (107.0322,253.9763) -- (96.6503,253.7995) -- (92.3344,263.9796) -- (89.1981,273.2665) -- (92.9833,279.9517) -- (99.7501,285.7804);
        \fill[style=ControlVolume, opacity=0.3, line width=1.2]  (90.1935,305.6882) -- (80.9378,304.1535) -- (92.5986,295.5031) -- (99.7681,285.7045) -- (105.6762,291.0402) -- (116.0143,299.1392) -- (108.8680,305.5524) -- (102.1301,312.2368) -- (90.1935,305.6882);
        \fill[style=ControlVolume, opacity=0.7, line width=1.2]  (41.2489,288.7038) -- (50.7533,284.4213) -- (59.6959,278.5260) -- (65.5160,285.6361) --(75.5160,287)-- (70.3102,291.8316) -- (57.2222,299.3139)-- (43.9307,296.0645) -- cycle;
        \fill[style=ControlVolume, opacity=0.7, line width=1.2]  (57.2222,299.3139) -- (70.1163,300.9648) -- (80.9378,304.1535) -- (92.6123,295.4839) -- (99.7681,285.7045) -- (92.7422,279.6526) -- (89.2162,273.1907) -- (82.0493,280.3549) -- (82.8819,286.5876) --(75.5160,287) -- (70.7233,291.5822) -- (57.6093,299.1316);
        \fill[style=ControlVolume, opacity=0.3, line width=1.2]  (41.2489,288.7038) -- (41.2489,288.7038) -- (32.7978,289.2286) -- (22.4060,291.8592) -- (13.9686,304.5941) -- (19.1739,320.1921) -- (41.7568,314.4203) -- (45.5990,305.2981) -- (57.2222,299.3139) -- (43.9307,296.0645) -- (41.2489,288.7038);
        \fill[style=ControlVolume, opacity=0.3, line width=1.2]  (42.8745,268.5584) -- (36.4885,265.9380) -- (17.9060,266.0851) -- (15.6344,279.7872) -- (22.4060,291.8592) -- (32.7978,289.2286) -- (41.2489,288.7038) -- (40.7619,278.0350) -- (42.8745,268.5584) -- (36.4885,265.9380);
        \fill[style=ControlVolume, opacity=0.3, line width=1.2]  (99.7681,285.7045) -- (106.7136,277.4103) -- (109.6050,265.2662) -- (122.8718,267.8268) -- (128.5772,281.3277) -- (123.7818,298.3146) -- (116.0143,299.1392) -- (105.6762,291.0402) -- cycle;
        \fill[style=ControlVolume, opacity=0.3, line width=1.2]  (45.5990,305.2981) -- (57.2222,299.3139) -- (70.1163,300.9648) -- (80.9378,304.1535) -- (70.1372,310.5112) -- (66.3815,323.6171) -- (56.9595,315.0460) -- (41.7569,314.4203);
        \fill[style=ControlVolume, opacity=0.3, line width=1.2]  (36.2886,265.8560) -- (42.8745,268.5584) -- (49.2646,261.8493) -- (55.2047,258.4118) -- (47.1821,252.7191) -- (43.4731,243.1664) -- (30.3909,243.1250) -- (21.8043,255.0516) --(17.9060,266.0851);
        \fill[style=ControlVolume, opacity=0.3, line width=1.2]  (77.9327,259.2064) -- (71.8790,255.9906) -- (66.1392,253.4003) -- (71.8468,250.6346) -- (72.0240,242.1971) -- (80.3533,242.9066) -- (85.2163,251.4830) -- (81.1444,253.3762) -- cycle;
        \fill[style=ControlVolume, opacity=0.3, line width=1.2]    (55.2047,258.4118) -- (47.1821,252.7191) -- (43.4731,243.1664)-- (62.2323,235.3414) -- (60.5286,249.8129)-- (60.5286,249.8129) -- (66.1362,253.5408);
        \fill[style=ControlVolume, opacity=0.3, line width=1.2]  (42.8745,268.5584) -- (40.7619,278.0350) -- (41.2489,288.7038) -- (50.7533,284.4213) -- (59.6959,278.5260) -- (52.6267,272.5990) -- cycle;
        \fill[style=ControlVolume, opacity=0.3, line width=1.2]  (60.5286,249.8129) -- (66.1362,253.5408) -- (71.8498,250.4941) -- (72.0211,242.3376) -- (62.2323,235.3414) -- (60.5286,249.8129);
        
        \draw[style=ControlVolume, fill opacity=0, draw opacity=0.8, line width=1.2]   (59.6959,278.5260) -- (52.6267,272.5990) -- (42.8745,268.5584) -- (49.2646,261.8494)--(49.2646,261.8493)--(55.2047,258.4118) ;
        \draw[style=ControlVolume, fill opacity=0.3, draw opacity=0.6, line width=1.2]  (66.1392,253.4003) -- (60.2299,255.4695) -- (55.2047,258.4118) -- (62.9775,263.5521) -- (69.1933,268.4209) -- (75.1056,263.9000) -- (77.9327,259.2064) -- (71.8790,255.9906) -- cycle;
        \draw[style=ControlVolume, opacity=0.6, line width=1.2]  (59.6959,278.5260) -- (65.9303,272.5017) -- (69.1933,268.4210) -- (81.1933,272.5377) -- (82.8077,286.6481) --(75.5160,287) -- (65.5160,285.6361) -- cycle;
        \draw[style=ControlVolume, fill opacity=0, draw opacity=0.6, line width=1.2]   (77.9327,259.2064) -- (82.9025,263.7794) -- (89.2071,273.2286) -- (82.2183,280.2532) ;
        \draw[style=ControlVolume, fill opacity=0, draw opacity=0.6, line width=1.2]  (89.2162,273.1907) -- (92.3524,263.9038) -- (96.6684,253.7237) ;
        \draw[style=ControlVolume, fill opacity=0, draw opacity=0.6, line width=1.2] (80.3533,242.9066) --(85.2163,251.4830) -- (81.0954,253.3841) -- (77.9327,259.2064) ;
        \draw[style=ControlVolume, fill opacity=0, draw opacity=0.6, line width=1.2]  (89.1981,273.2665) -- (92.9833,279.9517) -- (99.7501,285.7804)--(99.7501,285.7804) -- (106.7136,277.4103) -- (109.5870,265.3420) ;
        \draw[style=ControlVolume, fill opacity=0, draw opacity=0.6, line width=1.2]  (41.2489,288.7038) -- (50.7533,284.4213) -- (59.6959,278.5260) -- (65.5160,285.6361) --(75.5160,287)-- (70.3102,291.8316) -- (57.2222,299.3139)-- (43.9307,296.0645) -- cycle;
        \draw[style=ControlVolume, fill opacity=0, draw opacity=0.6, line width=1.2] (57.2222,299.3139) -- (70.1163,300.9648) -- (80.9378,304.1535) -- (92.6123,295.4839) -- (99.7681,285.7045) ;
        \draw[style=ControlVolume, fill opacity=0, draw opacity=0.6, line width=1.2]   (116.0143,299.1392) -- (105.6762,291.0402) -- (99.7681,285.7045);
        \draw[style=ControlVolume, fill opacity=0, draw opacity=0.6, line width=1.2]  (41.2489,288.7038) -- (41.2489,288.7038) -- (32.7978,289.2286) -- (22.4060,291.8592)  ;
        \draw[style=ControlVolume, fill opacity=0, draw opacity=0.6, line width=1.2] (41.7568,314.4203) --(45.5990,305.2981) -- (57.2222,299.3139) ;
        \draw[style=ControlVolume, fill opacity=0, draw opacity=0.6, line width=1.2]  (42.8745,268.5584) -- (36.4885,265.9380) -- (17.9060,266.0851) ;
        \draw[style=ControlVolume, fill opacity=0, draw opacity=0.6, line width=1.2]   (55.2047,258.4118) -- (47.1821,252.7191) -- (43.4731,243.1664) ;
        \draw[style=ControlVolume, fill opacity=0, draw opacity=0.6, line width=1.2]  (80.9378,304.1535) -- (70.1372,310.5112) -- (66.3815,323.6171) ;
        \draw[style=ControlVolume, fill opacity=0, draw opacity=0.6, line width=1.2] (66.1392,253.4003) -- (71.8468,250.6346) -- (72.0240,242.1971) ;
        \draw[style=ControlVolume, fill opacity=0, draw opacity=0.6, line width=1.2] (62.2323,235.3414) -- (60.5286,249.8129)-- (60.5286,249.8129) -- (66.1362,253.5408) ;
        \draw[style=ControlVolume, fill opacity=0, draw opacity=0.6, line width=1.2](42.8745,268.5584) -- (40.7619,278.0350)-- (41.2489,288.7038);
    \end{scope}
    \draw[style=ControlVolume, fill opacity=0, draw opacity=0.6, line width=1.2](75.5,100.8)--(85,102.5)--(96.6,108.7);
    
    % Neighbor elements edge
    \draw[style=ControlVolume, fill opacity=0, draw opacity=0.7,line width=1.2, dash pattern=on 5pt off 4pt] (33.7,50.8) -- (26.1256,98.4) ;
    \draw[style=ControlVolume, fill opacity=0, draw opacity=0.7,line width=1.2, dash pattern=on 5pt off 4pt]  (73.5850,76.3509 )--  (34.1,50.9)-- (62.5944,44.0207) -- (80.2157,52.78) ;

    % Element of interest
    \draw[style=ControlVolume, draw opacity=0.7,fill opacity=0, line width=1.2, dash pattern=on 5pt off 4pt] (26.1256,98.0950) -- (77.8995,109.2532) -- (109.0092,79.7841) -- (80.2157,52.8901) -- (73.5850,76.3509) -- (26.1256,98.0950);

    % Dual control volumes
    \draw[style=ControlVolume, fill opacity=0, draw opacity=0.3, line width=0.5, dash pattern=on 5pt off 4pt] (53,103.8) --(79,88) -- (93,94.8);
    \draw[style=ControlVolume, fill opacity=0, draw opacity=0.3, line width=0.5, dash pattern=on 5pt off 4pt] (79,88)-- (51,86.7) -- (43,74)--(54,63.6) --(63,56)-- (76.8,65) --cycle ;
    \draw[style=ControlVolume, fill opacity=0, draw opacity=0.3, line width=0.5, dash pattern=on 5pt off 4pt]  (43,74) --(30,74);
    \draw[style=ControlVolume, fill opacity=0, draw opacity=0.3, line width=0.5, dash pattern=on 5pt off 4pt](49,47.2)--(63,56) ;
    \draw[style=ControlVolume, fill opacity=0, draw opacity=0.3, line width=0.5, dash pattern=on 5pt off 4pt] (63,56) --(71.5,48.5);
    \draw[style=ControlVolume, fill opacity=0, draw opacity=0.3, line width=0.5, dash pattern=on 5pt off 4pt] (79.8,87) --(95.5,66);
    \draw[style=ControlVolume, fill opacity=0, draw opacity=0.3, line width=0.5, dash pattern=on 5pt off 4pt] (78.8,87) --(73,76);

    % Boundary box
    \draw[color=BaseColor, fill opacity=0, draw opacity=1,line width=2, rounded corners=25]  (6.2273,27.3974) rectangle (123.9446,127.2488);

    % Dual nodes
    \fill[color=DualColor] (62.5,44.1) circle (1.8pt);
    \fill[color=DualColor] (37.3,65.4) circle (1.8pt);
    \fill[color=DualColor] (35.5,74.2) circle (1.8pt);
    \fill[color=DualColor] (35.8,85.3) circle (1.8pt);
    \fill[color=DualColor] (38.5,92.52) circle (1.8pt);
    \fill[color=DualColor] (51.5,95.8) circle (1.8pt);
    \fill[color=DualColor] (64,97.5) circle (1.8pt);
    \fill[color=DualColor] (75.5,100.5) circle (1.8pt);
    \fill[color=DualColor] (87,92) circle (1.8pt);
    \fill[color=DualColor] (94,82.5) circle (1.8pt);
    \fill[color=DualColor] (87.5,76.5) circle (1.8pt);
    \fill[color=DualColor] (83.5,69.8) circle (1.8pt);
    \fill[color=DualColor] (77.9,61) circle (1.8pt);
    \fill[color=DualColor] (72.3,56) circle (1.8pt);
    \fill[color=DualColor] (69.6,60.3) circle (1.8pt);
    \fill[color=DualColor] (66.4,53) circle (1.8pt);
    \fill[color=DualColor] (60.4,50) circle (1.8pt);
    \fill[color=DualColor] (55.5,51.8) circle (1.8pt);
    \fill[color=DualColor] (49.7,55) circle (1.8pt);
    \fill[color=DualColor] (44.6,58.2) circle (1.8pt);
    \fill[color=DualColor] (57.5,60.4) circle (1.8pt);
    \fill[color=DualColor] (47.3,69.5) circle (1.8pt);
    \fill[color=DualColor] (46.4,80.2) circle (1.8pt);
    \fill[color=DualColor] (65,87.8) circle (1.8pt);
    \fill[color=DualColor] (77.9,75.5) circle (1.8pt);
    \fill[color=DualColor] (61,68.5) circle (1.8pt);
    \fill[color=DualColor] (59.9,82.2) circle (1.8pt);
    \fill[color=DualColor] (69.4,83.5) circle (1.8pt);
    \fill[color=DualColor] (77,83) circle (1.8pt);
    \fill[color=DualColor] (75.5,69.4) circle (1.8pt);
    \fill[color=DualColor] (32,63) circle (1.8pt);
    \fill[color=DualColor] (28,86) circle (1.8pt);
    \fill[color=DualColor] (40.5,101.2) circle (1.8pt);
    \fill[color=DualColor] (65,106.5) circle (1.8pt);
    \fill[color=DualColor] (85,102.5) circle (1.8pt);
    \fill[color=DualColor] (100,88) circle (1.8pt);
    \fill[color=DualColor] (101.31,73) circle (1.8pt);
    \fill[color=DualColor] (87.2,59.5) circle (1.8pt);
    \fill[color=DualColor] (75.5,50.2) circle (1.8pt);
    \fill[color=DualColor] (66.5,46) circle (1.8pt);
    \fill[color=DualColor] (55,45.5) circle (1.8pt);
    \fill[color=DualColor] (41.5,49) circle (1.8pt);
    \fill[color=DualColor] (63.3,65) circle (1.8pt);
    \fill[color=DualColor] (54,75) circle (1.8pt);

    % Dofs
    \fill[color=black] (62.5,44.1) circle (1.5pt);
    \fill[color=black] (34,50.8) circle (1.5pt);
    \fill[color=black] (26.5,98) circle (1.5pt);
    \fill[color=black] (73.4,76.3) circle (1.5pt);
    \fill[color=black] (80.2,53) circle (1.5pt);
    \fill[color=black] (77.8,109) circle (1.5pt);
    \fill[color=black] (108.7,79.8) circle (1.5pt);

    \fill[color=black] (53,103.8)  circle (1.5pt);
    \fill[color=black] (93,94.8) circle (1.5pt);
    \fill[color=black] (95,66.9) circle (1.5pt);
    \fill[color=black] (76.8,65) circle (1.5pt);
    \fill[color=black] (51,86.7) circle (1.5pt);
    \fill[color=black] (79,88) circle (1.5pt);
    \fill[color=black] (43,74) circle (1.5pt);
    \fill[color=black] (63,56) circle (1.5pt);
    \fill[color=black] (30,74) circle (1.5pt);
    \fill[color=black] (54,63.6) circle (1.5pt);
    \fill[color=black] (49,47.2) circle (1.5pt);
    \fill[color=black] (71.5,48.5) circle (1.5pt);


  
\end{tikzpicture}
