﻿\begin{tikzpicture}
    \begin{scope}[yshift=3em]
        \draw[black!20,line width=8] circle (10cm) ;
        \fill[black!40,line width=3] circle (8pt);
        \draw[line width=5, dash pattern = on 20pt off 15pt] (0:10cm) \foreach \x in {120,240} {-- (\x:10cm)} -- cycle (90:10cm);
        \draw[line width=5, dash pattern = on 40pt off 10pt](0:10cm) \foreach \x in {72,144,...,359} {-- (\x:10cm)} -- cycle (90:10cm);
        \draw[line width=5] (0:10cm) \foreach \x in {51.4286,102.8571,...,359} {-- (\x:10cm)}-- cycle (90:10cm);
   \end{scope}
\end{tikzpicture}
 
