\begin{tikzpicture}[x=0.75pt,y=0.75pt,yscale=-1,xscale=1]

    \fill  [style=FirstFluidZone] (48.5,1480.79) -- (241.79,1480.79) -- (241.79,1516.32) -- (48.5,1516.32) -- cycle;
    
    \fill [color=white,opacity=1] (63,1491.25) .. controls (63,1487.8) and (65.8,1485) .. (69.25,1485) .. controls (72.7,1485) and (75.5,1487.8) .. (75.5,1491.25) .. controls (75.5,1494.7) and (72.7,1497.5) .. (69.25,1497.5) .. controls (65.8,1497.5) and (63,1494.7) .. (63,1491.25) -- cycle;
    \fill [color=white,opacity=1] (82,1502.75) .. controls (82,1500.68) and (83.68,1499) .. (85.75,1499) .. controls (87.82,1499) and (89.5,1500.68) .. (89.5,1502.75) .. controls (89.5,1504.82) and (87.82,1506.5) .. (85.75,1506.5) .. controls (83.68,1506.5) and (82,1504.82) .. (82,1502.75) -- cycle;
    \fill [color=white,opacity=1] (102,1498.75) .. controls (102,1496.13) and (104.13,1494) .. (106.75,1494) .. controls (109.37,1494) and (111.5,1496.13) .. (111.5,1498.75) .. controls (111.5,1501.37) and (109.37,1503.5) .. (106.75,1503.5) .. controls (104.13,1503.5) and (102,1501.37) .. (102,1498.75) -- cycle;
    \fill [color=white,opacity=1] (118,1505.75) .. controls (118,1502.02) and (121.02,1499) .. (124.75,1499) .. controls (128.48,1499) and (131.5,1502.02) .. (131.5,1505.75) .. controls (131.5,1509.48) and (128.48,1512.5) .. (124.75,1512.5) .. controls (121.02,1512.5) and (118,1509.48) .. (118,1505.75) -- cycle;
    \fill [color=white,opacity=1] (214,1492.75) .. controls (214,1489.02) and (217.02,1486) .. (220.75,1486) .. controls (224.48,1486) and (227.5,1489.02) .. (227.5,1492.75) .. controls (227.5,1496.48) and (224.48,1499.5) .. (220.75,1499.5) .. controls (217.02,1499.5) and (214,1496.48) .. (214,1492.75) -- cycle;
    \fill [color=white,opacity=1] (170,1505.75) .. controls (170,1502.02) and (173.02,1499) .. (176.75,1499) .. controls (180.48,1499) and (183.5,1502.02) .. (183.5,1505.75) .. controls (183.5,1509.48) and (180.48,1512.5) .. (176.75,1512.5) .. controls (173.02,1512.5) and (170,1509.48) .. (170,1505.75) -- cycle;
    \fill [color=white,opacity=1] (182,1490.75) .. controls (182,1488.13) and (184.13,1486) .. (186.75,1486) .. controls (189.37,1486) and (191.5,1488.13) .. (191.5,1490.75) .. controls (191.5,1493.37) and (189.37,1495.5) .. (186.75,1495.5) .. controls (184.13,1495.5) and (182,1493.37) .. (182,1490.75) -- cycle;
    \fill [color=white,opacity=1] (199,1499.75) .. controls (199,1497.68) and (200.68,1496) .. (202.75,1496) .. controls (204.82,1496) and (206.5,1497.68) .. (206.5,1499.75) .. controls (206.5,1501.82) and (204.82,1503.5) .. (202.75,1503.5) .. controls (200.68,1503.5) and (199,1501.82) .. (199,1499.75) -- cycle;
    \fill [color=white,opacity=1] (145,1488.75) .. controls (145,1486.68) and (146.68,1485) .. (148.75,1485) .. controls (150.82,1485) and (152.5,1486.68) .. (152.5,1488.75) .. controls (152.5,1490.82) and (150.82,1492.5) .. (148.75,1492.5) .. controls (146.68,1492.5) and (145,1490.82) .. (145,1488.75) -- cycle;
    \fill [color=white,opacity=1] (119,1488.75) .. controls (119,1486.68) and (120.68,1485) .. (122.75,1485) .. controls (124.82,1485) and (126.5,1486.68) .. (126.5,1488.75) .. controls (126.5,1490.82) and (124.82,1492.5) .. (122.75,1492.5) .. controls (120.68,1492.5) and (119,1490.82) .. (119,1488.75) -- cycle;
    \fill [color=white,opacity=1] (61,1506.75) .. controls (61,1504.13) and (63.13,1502) .. (65.75,1502) .. controls (68.37,1502) and (70.5,1504.13) .. (70.5,1506.75) .. controls (70.5,1509.37) and (68.37,1511.5) .. (65.75,1511.5) .. controls (63.13,1511.5) and (61,1509.37) .. (61,1506.75) -- cycle;
    \fill [color=white,opacity=1] (210,1508.75) .. controls (210,1506.13) and (212.13,1504) .. (214.75,1504) .. controls (217.37,1504) and (219.5,1506.13) .. (219.5,1508.75) .. controls (219.5,1511.37) and (217.37,1513.5) .. (214.75,1513.5) .. controls (212.13,1513.5) and (210,1511.37) .. (210,1508.75) -- cycle;
    \fill [color=white,opacity=1] (87,1489.75) .. controls (87,1487.13) and (89.13,1485) .. (91.75,1485) .. controls (94.37,1485) and (96.5,1487.13) .. (96.5,1489.75) .. controls (96.5,1492.37) and (94.37,1494.5) .. (91.75,1494.5) .. controls (89.13,1494.5) and (87,1492.37) .. (87,1489.75) -- cycle;
    \fill [color=white,opacity=1] (155.4,1504.3) .. controls (155.4,1501.68) and (157.52,1499.55) .. (160.15,1499.55) .. controls (162.77,1499.55) and (164.9,1501.68) .. (164.9,1504.3) .. controls (164.9,1506.93) and (162.77,1509.05) .. (160.15,1509.05) .. controls (157.52,1509.05) and (155.4,1506.93) .. (155.4,1504.3) -- cycle;
    \fill [color=white,opacity=1] (163,1491.75) .. controls (163,1489.13) and (165.13,1487) .. (167.75,1487) .. controls (170.37,1487) and (172.5,1489.13) .. (172.5,1491.75) .. controls (172.5,1494.37) and (170.37,1496.5) .. (167.75,1496.5) .. controls (165.13,1496.5) and (163,1494.37) .. (163,1491.75) -- cycle;
    
    
    \fill [style=SecondFluidZone] (63,1491.25) .. controls (63,1487.8) and (65.8,1485) .. (69.25,1485) .. controls (72.7,1485) and (75.5,1487.8) .. (75.5,1491.25) .. controls (75.5,1494.7) and (72.7,1497.5) .. (69.25,1497.5) .. controls (65.8,1497.5) and (63,1494.7) .. (63,1491.25) -- cycle;
    \fill [style=SecondFluidZone] (82,1502.75) .. controls (82,1500.68) and (83.68,1499) .. (85.75,1499) .. controls (87.82,1499) and (89.5,1500.68) .. (89.5,1502.75) .. controls (89.5,1504.82) and (87.82,1506.5) .. (85.75,1506.5) .. controls (83.68,1506.5) and (82,1504.82) .. (82,1502.75) -- cycle;
    \fill [style=SecondFluidZone] (102,1498.75) .. controls (102,1496.13) and (104.13,1494) .. (106.75,1494) .. controls (109.37,1494) and (111.5,1496.13) .. (111.5,1498.75) .. controls (111.5,1501.37) and (109.37,1503.5) .. (106.75,1503.5) .. controls (104.13,1503.5) and (102,1501.37) .. (102,1498.75) -- cycle;
    \fill [style=SecondFluidZone] (118,1505.75) .. controls (118,1502.02) and (121.02,1499) .. (124.75,1499) .. controls (128.48,1499) and (131.5,1502.02) .. (131.5,1505.75) .. controls (131.5,1509.48) and (128.48,1512.5) .. (124.75,1512.5) .. controls (121.02,1512.5) and (118,1509.48) .. (118,1505.75) -- cycle;
    \fill [style=SecondFluidZone] (214,1492.75) .. controls (214,1489.02) and (217.02,1486) .. (220.75,1486) .. controls (224.48,1486) and (227.5,1489.02) .. (227.5,1492.75) .. controls (227.5,1496.48) and (224.48,1499.5) .. (220.75,1499.5) .. controls (217.02,1499.5) and (214,1496.48) .. (214,1492.75) -- cycle;
    \fill [style=SecondFluidZone] (170,1505.75) .. controls (170,1502.02) and (173.02,1499) .. (176.75,1499) .. controls (180.48,1499) and (183.5,1502.02) .. (183.5,1505.75) .. controls (183.5,1509.48) and (180.48,1512.5) .. (176.75,1512.5) .. controls (173.02,1512.5) and (170,1509.48) .. (170,1505.75) -- cycle;
    \fill [style=SecondFluidZone] (182,1490.75) .. controls (182,1488.13) and (184.13,1486) .. (186.75,1486) .. controls (189.37,1486) and (191.5,1488.13) .. (191.5,1490.75) .. controls (191.5,1493.37) and (189.37,1495.5) .. (186.75,1495.5) .. controls (184.13,1495.5) and (182,1493.37) .. (182,1490.75) -- cycle;
    \fill [style=SecondFluidZone] (199,1499.75) .. controls (199,1497.68) and (200.68,1496) .. (202.75,1496) .. controls (204.82,1496) and (206.5,1497.68) .. (206.5,1499.75) .. controls (206.5,1501.82) and (204.82,1503.5) .. (202.75,1503.5) .. controls (200.68,1503.5) and (199,1501.82) .. (199,1499.75) -- cycle;
    \fill [style=SecondFluidZone] (145,1488.75) .. controls (145,1486.68) and (146.68,1485) .. (148.75,1485) .. controls (150.82,1485) and (152.5,1486.68) .. (152.5,1488.75) .. controls (152.5,1490.82) and (150.82,1492.5) .. (148.75,1492.5) .. controls (146.68,1492.5) and (145,1490.82) .. (145,1488.75) -- cycle;
    \fill [style=SecondFluidZone] (119,1488.75) .. controls (119,1486.68) and (120.68,1485) .. (122.75,1485) .. controls (124.82,1485) and (126.5,1486.68) .. (126.5,1488.75) .. controls (126.5,1490.82) and (124.82,1492.5) .. (122.75,1492.5) .. controls (120.68,1492.5) and (119,1490.82) .. (119,1488.75) -- cycle;
    \fill [style=SecondFluidZone] (61,1506.75) .. controls (61,1504.13) and (63.13,1502) .. (65.75,1502) .. controls (68.37,1502) and (70.5,1504.13) .. (70.5,1506.75) .. controls (70.5,1509.37) and (68.37,1511.5) .. (65.75,1511.5) .. controls (63.13,1511.5) and (61,1509.37) .. (61,1506.75) -- cycle;
    \fill [style=SecondFluidZone] (210,1508.75) .. controls (210,1506.13) and (212.13,1504) .. (214.75,1504) .. controls (217.37,1504) and (219.5,1506.13) .. (219.5,1508.75) .. controls (219.5,1511.37) and (217.37,1513.5) .. (214.75,1513.5) .. controls (212.13,1513.5) and (210,1511.37) .. (210,1508.75) -- cycle;
    \fill [style=SecondFluidZone] (87,1489.75) .. controls (87,1487.13) and (89.13,1485) .. (91.75,1485) .. controls (94.37,1485) and (96.5,1487.13) .. (96.5,1489.75) .. controls (96.5,1492.37) and (94.37,1494.5) .. (91.75,1494.5) .. controls (89.13,1494.5) and (87,1492.37) .. (87,1489.75) -- cycle;
    \fill [style=SecondFluidZone] (155.4,1504.3) .. controls (155.4,1501.68) and (157.52,1499.55) .. (160.15,1499.55) .. controls (162.77,1499.55) and (164.9,1501.68) .. (164.9,1504.3) .. controls (164.9,1506.93) and (162.77,1509.05) .. (160.15,1509.05) .. controls (157.52,1509.05) and (155.4,1506.93) .. (155.4,1504.3) -- cycle;
    \fill [style=SecondFluidZone] (163,1491.75) .. controls (163,1489.13) and (165.13,1487) .. (167.75,1487) .. controls (170.37,1487) and (172.5,1489.13) .. (172.5,1491.75) .. controls (172.5,1494.37) and (170.37,1496.5) .. (167.75,1496.5) .. controls (165.13,1496.5) and (163,1494.37) .. (163,1491.75) -- cycle;
    
    \draw [style=Interface,line width=1] (63,1491.25) .. controls (63,1487.8) and (65.8,1485) .. (69.25,1485) .. controls (72.7,1485) and (75.5,1487.8) .. (75.5,1491.25) .. controls (75.5,1494.7) and (72.7,1497.5) .. (69.25,1497.5) .. controls (65.8,1497.5) and (63,1494.7) .. (63,1491.25) -- cycle;
    \draw [style=Interface,line width=1] (82,1502.75) .. controls (82,1500.68) and (83.68,1499) .. (85.75,1499) .. controls (87.82,1499) and (89.5,1500.68) .. (89.5,1502.75) .. controls (89.5,1504.82) and (87.82,1506.5) .. (85.75,1506.5) .. controls (83.68,1506.5) and (82,1504.82) .. (82,1502.75) -- cycle;
    \draw [style=Interface,line width=1] (102,1498.75) .. controls (102,1496.13) and (104.13,1494) .. (106.75,1494) .. controls (109.37,1494) and (111.5,1496.13) .. (111.5,1498.75) .. controls (111.5,1501.37) and (109.37,1503.5) .. (106.75,1503.5) .. controls (104.13,1503.5) and (102,1501.37) .. (102,1498.75) -- cycle;
    \draw [style=Interface,line width=1] (118,1505.75) .. controls (118,1502.02) and (121.02,1499) .. (124.75,1499) .. controls (128.48,1499) and (131.5,1502.02) .. (131.5,1505.75) .. controls (131.5,1509.48) and (128.48,1512.5) .. (124.75,1512.5) .. controls (121.02,1512.5) and (118,1509.48) .. (118,1505.75) -- cycle;
    \draw [style=Interface,line width=1] (214,1492.75) .. controls (214,1489.02) and (217.02,1486) .. (220.75,1486) .. controls (224.48,1486) and (227.5,1489.02) .. (227.5,1492.75) .. controls (227.5,1496.48) and (224.48,1499.5) .. (220.75,1499.5) .. controls (217.02,1499.5) and (214,1496.48) .. (214,1492.75) -- cycle;
    \draw [style=Interface,line width=1] (170,1505.75) .. controls (170,1502.02) and (173.02,1499) .. (176.75,1499) .. controls (180.48,1499) and (183.5,1502.02) .. (183.5,1505.75) .. controls (183.5,1509.48) and (180.48,1512.5) .. (176.75,1512.5) .. controls (173.02,1512.5) and (170,1509.48) .. (170,1505.75) -- cycle;
    \draw [style=Interface,line width=1] (182,1490.75) .. controls (182,1488.13) and (184.13,1486) .. (186.75,1486) .. controls (189.37,1486) and (191.5,1488.13) .. (191.5,1490.75) .. controls (191.5,1493.37) and (189.37,1495.5) .. (186.75,1495.5) .. controls (184.13,1495.5) and (182,1493.37) .. (182,1490.75) -- cycle;
    \draw [style=Interface,line width=1] (199,1499.75) .. controls (199,1497.68) and (200.68,1496) .. (202.75,1496) .. controls (204.82,1496) and (206.5,1497.68) .. (206.5,1499.75) .. controls (206.5,1501.82) and (204.82,1503.5) .. (202.75,1503.5) .. controls (200.68,1503.5) and (199,1501.82) .. (199,1499.75) -- cycle;
    \draw [style=Interface,line width=1] (145,1488.75) .. controls (145,1486.68) and (146.68,1485) .. (148.75,1485) .. controls (150.82,1485) and (152.5,1486.68) .. (152.5,1488.75) .. controls (152.5,1490.82) and (150.82,1492.5) .. (148.75,1492.5) .. controls (146.68,1492.5) and (145,1490.82) .. (145,1488.75) -- cycle;
    \draw [style=Interface,line width=1] (119,1488.75) .. controls (119,1486.68) and (120.68,1485) .. (122.75,1485) .. controls (124.82,1485) and (126.5,1486.68) .. (126.5,1488.75) .. controls (126.5,1490.82) and (124.82,1492.5) .. (122.75,1492.5) .. controls (120.68,1492.5) and (119,1490.82) .. (119,1488.75) -- cycle;
    \draw [style=Interface,line width=1] (61,1506.75) .. controls (61,1504.13) and (63.13,1502) .. (65.75,1502) .. controls (68.37,1502) and (70.5,1504.13) .. (70.5,1506.75) .. controls (70.5,1509.37) and (68.37,1511.5) .. (65.75,1511.5) .. controls (63.13,1511.5) and (61,1509.37) .. (61,1506.75) -- cycle;
    \draw [style=Interface,line width=1] (210,1508.75) .. controls (210,1506.13) and (212.13,1504) .. (214.75,1504) .. controls (217.37,1504) and (219.5,1506.13) .. (219.5,1508.75) .. controls (219.5,1511.37) and (217.37,1513.5) .. (214.75,1513.5) .. controls (212.13,1513.5) and (210,1511.37) .. (210,1508.75) -- cycle;
    \draw [style=Interface,line width=1] (87,1489.75) .. controls (87,1487.13) and (89.13,1485) .. (91.75,1485) .. controls (94.37,1485) and (96.5,1487.13) .. (96.5,1489.75) .. controls (96.5,1492.37) and (94.37,1494.5) .. (91.75,1494.5) .. controls (89.13,1494.5) and (87,1492.37) .. (87,1489.75) -- cycle;
    \draw [style=Interface,line width=1] (155.4,1504.3) .. controls (155.4,1501.68) and (157.52,1499.55) .. (160.15,1499.55) .. controls (162.77,1499.55) and (164.9,1501.68) .. (164.9,1504.3) .. controls (164.9,1506.93) and (162.77,1509.05) .. (160.15,1509.05) .. controls (157.52,1509.05) and (155.4,1506.93) .. (155.4,1504.3) -- cycle;
    \draw [style=Interface,line width=1] (163,1491.75) .. controls (163,1489.13) and (165.13,1487) .. (167.75,1487) .. controls (170.37,1487) and (172.5,1489.13) .. (172.5,1491.75) .. controls (172.5,1494.37) and (170.37,1496.5) .. (167.75,1496.5) .. controls (165.13,1496.5) and (163,1494.37) .. (163,1491.75) -- cycle;
    
    \draw  [style=DomainBoundary,line width=0.8] (48.5,1480.79) -- (241.79,1480.79) -- (241.79,1516.32) -- (48.5,1516.32) -- cycle;
       
\end{tikzpicture}
