﻿\begin{tikzpicture}[x=0.75pt,y=0.75pt,yscale=-1,xscale=1]
	
	% Helium area
	\fill [style=FirstFluidZone, rounded corners=20pt]  (102,351.35) -- (522.5,351.35) -- (522.5,608.35) -- (102,608.35)  --cycle;
	
	% Air area
	\fill [color=white,opacity=1] (522.5,608.35) -- (522.5,351.35)-- (209.5,352.35) .. controls (263.5,563.35) and (366.5,495.35) .. (412.5,608.35) -- (522.5,608.35);
	\fill [style=SecondFluidZone,sharp corners]  (209.5,352.35) .. controls (263.5,563.35) and (366.5,495.35) .. (412.5,608.35) [rounded corners=20pt] -- (522.5,608.35) [rounded corners=20pt] --  (522.5,351.35) [rounded corners=20pt] -- (209.5,352.35);
	
	% Mesh edges lines
	\draw [style=MeshFrame]   (215.12,411.44) -- (150.4,402.65);
	\draw [style=MeshFrame]   (150.4,402.65) -- (180.4,351.35);
	\draw [style=MeshFrame]   (149.4,402.65) -- (112,360.35);
	\draw [style=MeshFrame]   (150.4,402.65) -- (102.4,424.65);
	\draw [style=MeshFrame]   (150.4,402.65) -- (162.4,457.65);
	\draw [style=MeshFrame]   (102.4,424.65) -- (162.4,457.65);
	\draw [style=MeshFrame]   (162.4,457.65) -- (215.12,411.44);
	\draw [style=MeshFrame]   (162.4,457.65) -- (240.4,489.95);
	\draw [style=MeshFrame]   (162.4,457.65) -- (178.4,514.65);
	\draw [style=MeshFrame]   (178.4,514.65) -- (240.4,489.95);
	\draw [style=MeshFrame]   (162.4,457.65) -- (102.4,493.65);
	\draw [style=MeshFrame]   (102.4,493.65) -- (178.4,514.65);
	\draw [style=MeshFrame]   (178.4,514.65) -- (231.4,551.65);
	\draw [style=MeshFrame]   (240.4,489.95) -- (231.4,551.65);
	\draw [style=MeshFrame]   (178.4,514.65) -- (147.4,560.65);
	\draw [style=MeshFrame]   (102.4,493.65) -- (147.4,560.65);
	\draw [style=MeshFrame]   (231.4,551.65) -- (147.4,560.65);
	\draw [style=MeshFrame]   (147.4,560.65) -- (112,602.35);
	\draw [style=MeshFrame]   (231.4,551.65) -- (298.4,545.65);
	\draw [style=MeshFrame]   (231.4,551.65) -- (190.4,607.65);
	\draw [style=MeshFrame]   (147.4,560.65) -- (190.4,607.65);
	\draw [style=MeshFrame]   (258.4,608.35) -- (231.4,551.65);
	\draw [style=MeshFrame]   (298.4,545.65) -- (258.4,608.35);
	\draw [style=MeshFrame]   (326.4,608.35) -- (370.4,577.65);
	\draw [style=MeshFrame]   (298.4,545.65) -- (326.4,608.35);
	\draw [style=MeshFrame]   (283.4,434.95) -- (347.4,442.65);
	\draw [style=MeshFrame]   (347.4,442.65) -- (310.4,486.65);
	\draw [style=MeshFrame]   (347.4,442.65) -- (315.4,393.65);
	\draw [style=MeshFrame]   (315.4,393.65) -- (283.4,434.95);
	\draw [style=MeshFrame]   (249.74,351.35) -- (315.4,393.65);
	\draw [style=MeshFrame]   (315.4,393.65) -- (339.4,351.35);
	\draw [style=MeshFrame]   (347.4,442.65) -- (369.4,513.65);
	\draw [style=MeshFrame]   (339.4,351.35) -- (373.4,393.65);
	\draw [style=MeshFrame]   (373.4,393.65) -- (315.4,393.65);
	\draw [style=MeshFrame]   (373.4,393.65) -- (347.4,442.65);
	\draw [style=MeshFrame]   (373.4,393.65) -- (405.4,351.35);
	\draw [style=MeshFrame]   (347.4,442.65) -- (397.4,437.65);
	\draw [style=MeshFrame]   (373.4,393.65) -- (397.4,437.65);
	\draw [style=MeshFrame]   (347.4,442.65) -- (407.4,491.65);
	\draw [style=MeshFrame]   (369.4,513.65) -- (407.4,491.65);
	\draw [style=MeshFrame]   (397.4,437.65) -- (407.4,491.65);
	\draw [style=MeshFrame]   (407.4,491.65) -- (422.4,559.65);
	\draw [style=MeshFrame]   (397.4,437.65) -- (451.4,456.65);
	\draw [style=MeshFrame]   (451.4,456.65) -- (407.4,491.65);
	\draw [style=MeshFrame]   (397.4,437.65) -- (430.4,396.65);
	\draw [style=MeshFrame]   (430.4,396.65) -- (373.4,393.65);
	\draw [style=MeshFrame]   (430.4,396.65) -- (405.4,351.35);
	\draw [style=MeshFrame]   (451.4,456.65) -- (430.4,396.65);
	\draw [style=MeshFrame]   (451.4,456.65) -- (483.4,402.65);
	\draw [style=MeshFrame]   (430.4,396.65) -- (472.4,351.35);
	\draw [style=MeshFrame]   (430.4,396.65) -- (483.4,402.65);
	\draw [style=MeshFrame]   (472.4,351.35) -- (483.4,402.65);
	\draw [style=MeshFrame]   (514.5,356.35) -- (483.4,402.65);
	\draw [style=MeshFrame]   (407.4,491.65) -- (462.4,521.65);
	\draw [style=MeshFrame]   (451.4,456.65) -- (462.4,521.65);
	\draw [style=MeshFrame]   (422.4,559.65) -- (462.4,521.65);
	\draw [style=MeshFrame]   (451.4,456.65) -- (522.4,479.65);
	\draw [style=MeshFrame]   (483.4,402.65) -- (522.4,479.65);
	\draw [style=MeshFrame]   (462.4,521.65) -- (522.4,479.65);
	\draw [style=MeshFrame]   (422.4,559.65) -- (487.4,565.65);
	\draw [style=MeshFrame]   (462.4,521.65) -- (487.4,565.65);
	\draw [style=MeshFrame]   (487.4,565.65) -- (443.4,607.65);
	\draw [style=MeshFrame]   (516.5,600.35) -- (487.4,565.65);
	\draw [style=MeshFrame]   (487.4,565.65) -- (522.4,479.65);
	
	% Edges on the interface
	\draw [style=MeshFrame]  (249.74,351.35) -- (215.12,411.44);
	\draw [style=MeshFrame]  (283.4,434.95)  -- (240.4,489.95);
	\draw [style=MeshFrame]  (215.12,411.44) -- (283.4,434.95);
	\draw [style=MeshFrame]  (310.4,486.65)  -- (240.4,489.95);
	\draw [style=MeshFrame]  (298.4,545.65)  -- (310.4,486.65);
	\draw [style=MeshFrame]  (369.4,513.65)  -- (298.4,545.65);
	\draw [style=MeshFrame]  (370.4,577.65)  -- (369.4,513.65);
	\draw [style=MeshFrame]  (370.4,577.65)  -- (422.4,559.65);
    \draw [style=MeshFrame]  (399.4,607.65)  -- (422.4,559.65);
	
	% Interface
	\draw [style=Interface,draw opacity=1,line width=3] (209.5,352.35) .. controls (263.5,563.35) and (366.5,495.35) .. (412.5,608.35);
	
	% Interfacial cells
	\fill [style=InterfacialCell]  (249.74,351.35) -- (215.12,411.44) -- (180.4,351.35) -- cycle;
	\fill [style=InterfacialCell]  (249.74,351.35) -- (215.12,411.44) -- (283.4,434.95) -- cycle;
	\fill [style=InterfacialCell]  (215.12,411.44) -- (283.4,434.95)  -- (240.4,489.95) -- cycle;
	\fill [style=InterfacialCell]  (310.4,486.65)  -- (283.4,434.95)  -- (240.4,489.95) -- cycle;
	\fill [style=InterfacialCell]  (240.4,489.95)  -- (298.4,545.65)  -- (310.4,486.65) -- cycle;
	\fill [style=InterfacialCell]  (369.4,513.65)  -- (310.4,486.65)  -- (298.4,545.65) -- cycle;
	\fill [style=InterfacialCell]  (370.4,577.65)  -- (369.4,513.65)  -- (298.4,545.65) -- cycle;
	\fill [style=InterfacialCell]  (370.4,577.65)  -- (369.4,513.65)  -- (422.4,559.65) -- cycle;
	\fill [style=InterfacialCell]  (370.4,577.65)  -- (422.4,559.65)  -- (399.4,607.65) -- cycle;
	\fill [style=InterfacialCell]  (443.4,607.65)  -- (422.4,559.65)  -- (399.4,607.65) -- cycle;
	
	% External edges on interfaicial cells
	\draw [style=MeshFrame]  (310.4,486.65)  -- (283.4,434.95);
	\draw [style=MeshFrame]  (369.4,513.65)  -- (310.4,486.65);
	\draw [style=MeshFrame]  (240.4,489.95)  -- (298.4,545.65);
	\draw [style=MeshFrame]  (215.12,411.44) -- (180.4,351.35);
	\draw [style=MeshFrame]  (283.4,434.95)  -- (249.74,351.35);
	\draw [style=MeshFrame]  (215.12,411.44) -- (240.4,489.95);
	\draw [style=MeshFrame]  (369.4,513.65)  -- (422.4,559.65);
	\draw [style=MeshFrame]  (370.4,577.65)  -- (399.4,607.65);
	\draw [style=MeshFrame]  (370.4,577.65)  -- (298.4,545.65);
	\draw [style=MeshFrame]  (443.4,607.65)  -- (399.4,607.65);
	\draw [style=MeshFrame]  (443.4,607.65)  -- (422.4,559.65);
	
	% Big domain
	\draw  [style=DomainBoundary,line width=2.5, rounded corners=20pt]  (102,351.35) -- (522.5,351.35) -- (522.5,608.35) -- (102,608.35) -- cycle;
	
	\draw (130,360.35)   node[anchor=north west, opacity=0.8][inner sep=0.75pt] {$\Omega_1$}; 
	\draw (480.5,580.35) node[anchor=north west, opacity=0.8][inner sep=0.75pt] {$\Omega_0$};

\end{tikzpicture}
